{
	"IcoMoonType": "selection",
	"icons": [
		{
			"icon": {
				"paths": [
					"M896 960h-576q-53 0-90.5-37.5t-37.5-90.5h-64q-53 0-90.5-37.5t-37.5-90.5v-512q0-53 37.5-90t90.5-37h768q53 0 90.5 37t37.5 90v640q0 53-37.5 90.5t-90.5 37.5zM416 704q96 0 96-96t-96-96-96 96 96 96zM864 192h-647q-37 0-63 25t-26 61v341q0 29 18 51.5t46 29.5v-316q0-53 37.5-90.5t90.5-37.5h544q13 0 22.5-9t9.5-22.5-9.5-23-22.5-9.5z"
				],
				"tags": [
					"wallet"
				],
				"grid": 16
			},
			"properties": {
				"order": 1,
				"id": 31,
				"prevSize": 64,
				"code": 58880,
				"name": "wallet",
				"ligatures": ""
			}
		},
		{
			"icon": {
				"paths": [
					"M831.5 384q-26.5 0-45-18.5t-18.5-45.5q0-34-37.5-64t-96.5-47-122-17-122 17-96.5 47-37.5 64 37.5 64 96.5 47 122 17q104 0 192.5 34.5t140 93 51.5 128.5q0 94-91.5 165.5t-228.5 86.5v4q0 27-19 45.5t-45.5 18.5-45-18.5-18.5-45.5v-4q-137-15-228.5-86.5t-91.5-165.5q0-26 18.5-45t45-19 45.5 19 19 45q0 34 37.5 64t96.5 47 122 17 122-17 96.5-47 37.5-64-37.5-64-96.5-47-122-17q-104 0-192.5-34t-140-93-51.5-129q0-94 91.5-165.5t228.5-86.5v-4q0-26 18.5-45t45-19 45.5 19 19 45v4q137 15 228.5 86.5t91.5 165.5q0 27-19 45.5t-45.5 18.5z"
				],
				"tags": [
					"dollar"
				],
				"grid": 16
			},
			"properties": {
				"order": 2,
				"id": 1,
				"prevSize": 64,
				"code": 58881,
				"name": "dollar",
				"ligatures": ""
			}
		},
		{
			"icon": {
				"paths": [
					"M877.714 768v73.143q0 14.857-10.857 25.714t-25.714 10.857h-804.571q-14.857 0-25.714-10.857t-10.857-25.714v-73.143q0-14.857 10.857-25.714t25.714-10.857h804.571q14.857 0 25.714 10.857t10.857 25.714zM877.714 475.429v73.143q0 14.857-10.857 25.714t-25.714 10.857h-804.571q-14.857 0-25.714-10.857t-10.857-25.714v-73.143q0-14.857 10.857-25.714t25.714-10.857h804.571q14.857 0 25.714 10.857t10.857 25.714zM877.714 182.857v73.143q0 14.857-10.857 25.714t-25.714 10.857h-804.571q-14.857 0-25.714-10.857t-10.857-25.714v-73.143q0-14.857 10.857-25.714t25.714-10.857h804.571q14.857 0 25.714 10.857t10.857 25.714z"
				],
				"width": 878,
				"tags": [
					"reorder",
					"list",
					"menu"
				],
				"grid": 14
			},
			"properties": {
				"order": 3,
				"id": 178,
				"prevSize": 56,
				"code": 58882,
				"name": "reorder",
				"ligatures": ""
			}
		},
		{
			"icon": {
				"paths": [
					"M654.906 4.86c4.356 1.336 8.71 2.722 13.118 3.98 39.948 11.484 65.446 49.528 60.778 90.774-4.51 39.858-38.51 71.304-79.496 73.482-40.234 2.164-76.528-26.014-85.472-66.326-9.748-44.136 19.34-89.386 63.644-99.004 3.214-0.712 6.326-1.918 9.462-2.904 6.002-0.002 11.964-0.002 17.966-0.002zM766.964 327.992c-5.678 0-9.774 0-15.542 0 0 5.782 0 11.186 0 16.592 0 209.234 0.052 418.44-0.104 627.66-0.026 8.4-0.686 17.24-3.24 25.172-6.856 21.336-28.050 32.522-53.572 29.514-20.234-2.386-37.032-18.964-39.598-39.404-0.662-5.068-0.662-10.214-0.662-15.348-0.026-119.536-0.026-239.084-0.026-358.66 0-5.042 0-10.084 0-15.982-5.12-0.376-9.216-0.674-15.542-1.128 0 6.002 0 11.328 0 16.644 0 119.99 0.026 239.966-0.026 359.956-0.026 27.48-11.108 44.718-33.014 51.952-32.030 10.538-61.492-8.944-63.902-42.424-0.402-5.522-0.26-11.082-0.26-16.63-0.026-207.094 0-414.162 0-621.256 0-5.082 0-10.15 0-16.242-5.69 0-10.434 0-16.578 0 0 5.354 0 10.396 0 15.424 0 72.146 0.078 144.306-0.078 216.452-0.026 25.004-14.076 39.352-37.266 38.964-20.234-0.338-34.88-14.206-34.932-34.726-0.26-89.23-0.712-178.488 0.156-267.704 0.506-52.432 44.486-99.276 97.318-100.896 63.954-1.958 128.13-1.608 192.046 1.050 52.302 2.178 95.57 47.454 96.502 100.236 1.568 89.218 0.764 178.474 0.454 267.704-0.078 20.506-15.14 34.504-35.088 34.894-20.13 0.388-34.454-12.65-36.436-33.404-0.506-5.082-0.61-10.202-0.61-15.334-0.052-69.178-0.026-138.33-0.026-207.522 0.026-4.978 0.026-9.994 0.026-15.554zM211.8 4.86c4.356 1.336 8.71 2.722 13.118 3.98 39.948 11.484 65.446 49.528 60.778 90.774-4.51 39.858-38.484 71.304-79.496 73.482-40.234 2.164-76.528-26.014-85.446-66.326-9.774-44.136 19.34-89.386 63.644-99.004 3.214-0.712 6.3-1.918 9.45-2.904 5.974-0.002 11.95-0.002 17.952-0.002zM323.844 327.992c-5.652 0-9.748 0-15.516 0 0 5.782 0 11.186 0 16.592 0 209.234 0.026 418.44-0.13 627.66-0.026 8.4-0.686 17.24-3.24 25.172-6.856 21.336-28.050 32.522-53.572 29.514-20.208-2.386-37.032-18.964-39.598-39.404-0.662-5.068-0.662-10.214-0.662-15.348-0.026-119.536-0.026-239.084-0.026-358.66 0-5.042 0-10.084 0-15.982-5.12-0.376-9.19-0.674-15.516-1.128 0 6.002 0 11.328 0 16.644-0.026 119.99 0.026 239.966-0.026 359.956-0.026 27.48-11.108 44.718-33.040 51.952-32.030 10.538-61.492-8.944-63.902-42.424-0.402-5.522-0.26-11.082-0.26-16.63-0.026-207.094 0-414.162 0-621.256 0-5.082 0-10.15 0-16.242-5.678 0-10.434 0-16.578 0 0 5.354 0 10.396 0 15.424 0 72.146 0.104 144.306-0.078 216.452-0.026 25.004-14.050 39.352-37.266 38.964-20.234-0.338-34.88-14.206-34.932-34.726-0.26-89.23-0.712-178.488 0.156-267.704 0.506-52.432 44.512-99.276 97.318-100.896 63.98-1.958 128.13-1.608 192.046 1.050 52.302 2.178 95.57 47.454 96.502 100.236 1.594 89.218 0.764 178.474 0.454 267.704-0.052 20.506-15.14 34.504-35.062 34.894-20.156 0.388-34.478-12.65-36.45-33.404-0.506-5.082-0.61-10.202-0.61-15.334-0.026-69.178-0.026-138.33-0.026-207.522 0.014-4.978 0.014-9.994 0.014-15.554zM1085.596 4.86c4.356 1.336 8.71 2.722 13.118 3.98 39.948 11.484 65.446 49.528 60.778 90.774-4.51 39.858-38.484 71.304-79.496 73.482-40.234 2.164-76.528-26.014-85.472-66.326-9.748-44.136 19.34-89.386 63.67-99.004 3.214-0.712 6.3-1.918 9.45-2.904 5.974-0.002 11.95-0.002 17.952-0.002zM1197.64 327.992c-5.652 0-9.748 0-15.542 0 0 5.782 0 11.186 0 16.592 0 209.234 0.052 418.44-0.104 627.66-0.026 8.4-0.686 17.24-3.24 25.172-6.856 21.336-28.050 32.522-53.572 29.514-20.234-2.386-37.032-18.964-39.598-39.404-0.662-5.068-0.662-10.214-0.662-15.348-0.026-119.536-0.026-239.084-0.026-358.66 0-5.042 0-10.084 0-15.982-5.12-0.376-9.19-0.674-15.542-1.128 0 6.002 0 11.328 0 16.644 0 119.99 0.026 239.966-0.026 359.956-0.026 27.48-11.108 44.718-33.014 51.952-32.030 10.538-61.492-8.944-63.902-42.424-0.402-5.522-0.26-11.082-0.26-16.63-0.026-207.094 0-414.162 0-621.256 0-5.082 0-10.15 0-16.242-5.69 0-10.434 0-16.578 0 0 5.354 0 10.396 0 15.424 0 72.146 0.078 144.306-0.078 216.452-0.026 25.004-14.076 39.352-37.266 38.964-20.234-0.338-34.88-14.206-34.932-34.726-0.26-89.23-0.712-178.488 0.156-267.704 0.506-52.432 44.486-99.276 97.318-100.896 63.98-1.958 128.13-1.608 192.046 1.050 52.302 2.178 95.57 47.454 96.502 100.236 1.568 89.218 0.764 178.474 0.454 267.704-0.078 20.506-15.14 34.504-35.088 34.894-20.13 0.388-34.454-12.65-36.436-33.404-0.506-5.082-0.61-10.202-0.61-15.334-0.052-69.178-0.026-138.33-0.026-207.522 0.026-4.978 0.026-9.994 0.026-15.554z"
				],
				"width": 1270,
				"tags": [
					"group"
				],
				"defaultCode": 57359,
				"grid": 0
			},
			"properties": {
				"order": 4,
				"id": 14,
				"prevSize": 32,
				"code": 57359,
				"name": "group",
				"ligatures": ""
			}
		},
		{
			"icon": {
				"paths": [
					"M81.612 270.644c24.986 13.466 371.148 199.372 384.052 206.284 12.852 6.912 29.542 10.24 46.336 10.24 16.844 0 33.536-3.328 46.388-10.292 12.902-6.912 359.014-192.82 384-206.284 25.036-13.414 48.69-55.552 2.764-55.552h-866.252c-45.928 0-22.324 42.138 2.712 55.604zM952.986 373.044c-28.416 14.848-377.19 197.172-394.598 206.284s-29.544 10.292-46.388 10.292c-16.794 0-28.928-1.178-46.336-10.292s-366.234-191.488-394.598-206.284c-20.020-10.446-19.866 1.792-19.866 11.212 0 9.42 0 375.552 0 375.552 0 21.504 28.62 49.152 50.79 49.152h820.070c22.22 0 50.74-27.648 50.74-49.1 0 0 0-366.132 0-375.552-0-9.472 0.204-21.71-19.814-11.264z"
				],
				"tags": [
					"mail",
					"email",
					"message",
					"letter",
					"envelope",
					"contact"
				],
				"defaultCode": 57361,
				"grid": 0
			},
			"properties": {
				"order": 5,
				"id": 15,
				"prevSize": 32,
				"code": 57361,
				"name": "mail",
				"ligatures": ""
			}
		},
		{
			"icon": {
				"paths": [
					"M435.2 51.2h-46.028c-11.316 0-20.532 9.216-20.532 20.48v194.56h-181.044c-8.448 0-18.944 1.946-28.98 5.018-10.136 3.122-19.812 7.424-26.724 12.134l-121.6 83.456c-6.862 4.71-10.292 10.906-10.292 17.152s3.43 12.442 10.292 17.152l121.6 83.456c6.912 4.71 16.588 9.012 26.726 12.134 10.034 3.072 20.53 5.018 28.978 5.018h181.044v450.56c0 11.316 9.216 20.48 20.48 20.48h46.080c11.316 0 20.48-9.216 20.48-20.48v-880.64c0-11.264-9.164-20.48-20.48-20.48zM1013.708 264.5l-121.6-83.456c-6.86-4.71-16.538-9.012-26.676-12.134-10.084-3.124-20.58-5.070-29.028-5.070h-350.004l41.012 235.52h308.992c8.448 0 18.944-1.946 29.030-5.018s19.814-7.424 26.676-12.084l121.6-83.456c6.91-4.76 10.29-10.956 10.29-17.202s-3.38-12.442-10.292-17.1z"
				],
				"tags": [
					"directions",
					"address",
					"guide",
					"location"
				],
				"defaultCode": 57362,
				"grid": 0
			},
			"properties": {
				"order": 6,
				"id": 16,
				"prevSize": 32,
				"code": 57362,
				"name": "directions",
				"ligatures": ""
			}
		},
		{
			"icon": {
				"paths": [
					"M633.702 739.738c-127.538-45.978-168.294-84.788-168.294-167.886 0-49.868 38.964-33.588 56.064-124.928 7.116-37.888 41.524-0.614 48.026-87.092 0-34.458-18.74-43.060-18.74-43.060s9.574-51.046 13.26-90.266c4.61-48.944-28.568-175.306-205.618-175.306s-210.228 126.362-205.62 175.308c3.738 39.27 13.312 90.266 13.312 90.266s-18.79 8.55-18.79 43.060c6.604 86.476 41.012 49.204 48.026 87.092 17.152 91.34 56.116 75.060 56.116 124.928 0 83.098-40.806 121.908-168.346 167.884-15.36 5.478-51.968 14.080-83.098 27.546l-0 205.516h819.2c0 0 0-75.724 0-107.776s-57.498-79.156-185.498-125.286zM870.4 460.8v-153.6h-102.4v153.6h-153.6v102.4h153.6v153.6h102.4v-153.6h153.6v-102.4h-153.6z"
				],
				"tags": [
					"user-add"
				],
				"defaultCode": 57363,
				"grid": 0
			},
			"properties": {
				"order": 7,
				"id": 17,
				"prevSize": 32,
				"code": 57363,
				"name": "user-add",
				"ligatures": ""
			}
		},
		{
			"icon": {
				"paths": [
					"M864 0c88.364 0 160 71.634 160 160 0 36.020-11.91 69.258-32 96l-64 64-224-224 64-64c26.742-20.090 59.978-32 96-32zM64 736l-64 288 288-64 592-592-224-224-592 592zM715.578 363.578l-448 448-55.156-55.156 448-448 55.156 55.156z"
				],
				"tags": [
					"pencil",
					"write",
					"edit",
					"blog",
					"note"
				],
				"defaultCode": 57366,
				"grid": 0
			},
			"properties": {
				"order": 8,
				"id": 27,
				"prevSize": 32,
				"code": 57366,
				"name": "pencil",
				"ligatures": ""
			}
		},
		{
			"icon": {
				"paths": [
					"M512 0c-176.732 0-320 143.268-320 320 0 320 320 704 320 704s320-384 320-704c0-176.732-143.27-320-320-320zM512 516c-108.248 0-196-87.752-196-196s87.752-196 196-196 196 87.752 196 196-87.752 196-196 196zM388 320c0 68.483 55.517 124 124 124s124-55.517 124-124c0-68.483-55.517-124-124-124-68.483 0-124 55.517-124 124z"
				],
				"tags": [
					"location",
					"map",
					"marker",
					"pin"
				],
				"defaultCode": 57367,
				"grid": 0
			},
			"properties": {
				"order": 9,
				"id": 28,
				"prevSize": 32,
				"code": 57367,
				"name": "location",
				"ligatures": ""
			}
		},
		{
			"icon": {
				"paths": [
					"M1025.5 800c0-288-256-224-256-448 0-18.56-1.788-34.42-5.048-47.928-16.83-113.018-92.156-203.72-189.772-231.36 0.866-3.948 1.32-8.032 1.32-12.21-0-33.278-28.8-60.502-64-60.502-35.2 0-64 27.224-64 60.5 0 4.18 0.456 8.264 1.32 12.21-109.47 30.998-190.914 141.298-193.254 273.442-0.040 1.92-0.066 3.864-0.066 5.846-0 224.002-256 160.002-256 448.002 0 76.226 170.59 139.996 398.97 156.080 21.524 40.404 64.056 67.92 113.030 67.92s91.508-27.516 113.030-67.92c228.38-16.084 398.97-79.854 398.97-156.080 0-0.228-0.026-0.456-0.028-0.682l1.528 0.682zM826.246 854.096c-54.23 14.47-118.158 24.876-186.768 30.648-5.704-65.418-60.582-116.744-127.478-116.744s-121.774 51.326-127.478 116.744c-68.608-5.772-132.538-16.178-186.768-30.648-74.63-19.914-110.31-42.19-123.368-54.096 13.058-11.906 48.738-34.182 123.368-54.096 86.772-23.152 198.372-35.904 314.246-35.904s227.474 12.752 314.246 35.904c74.63 19.914 110.31 42.19 123.368 54.096-13.058 11.906-48.738 34.182-123.368 54.096z"
				],
				"tags": [
					"bell",
					"alarm",
					"notification"
				],
				"defaultCode": 57368,
				"grid": 0
			},
			"properties": {
				"order": 10,
				"id": 29,
				"prevSize": 32,
				"code": 57368,
				"name": "bell",
				"ligatures": ""
			}
		},
		{
			"icon": {
				"paths": [
					"M512.002 193.212v-65.212h128v-64c0-35.346-28.654-64-64.002-64h-191.998c-35.346 0-64 28.654-64 64v64h128v65.212c-214.798 16.338-384 195.802-384 414.788 0 229.75 186.25 416 416 416 229.75 0 416-186.25 416-416 0-218.984-169.202-398.448-384-414.788zM706.276 834.274c-60.442 60.44-140.798 93.726-226.274 93.726s-165.834-33.286-226.274-93.726c-60.44-60.44-93.726-140.8-93.726-226.274s33.286-165.834 93.726-226.274c58.040-58.038 134.448-91.018 216.114-93.548l-21.678 314.020c-1.86 26.29 12.464 37.802 31.836 37.802s33.698-11.512 31.836-37.802l-21.676-314.022c81.666 2.532 158.076 35.512 216.116 93.55 60.44 60.44 93.726 140.8 93.726 226.274s-33.286 165.834-93.726 226.274z"
				],
				"tags": [
					"stopwatch",
					"time",
					"speed",
					"meter",
					"chronometer"
				],
				"defaultCode": 57369,
				"grid": 0
			},
			"properties": {
				"order": 11,
				"id": 30,
				"prevSize": 32,
				"code": 57369,
				"name": "stopwatch",
				"ligatures": ""
			}
		},
		{
			"icon": {
				"paths": [
					"M864 128l-480 480-224-224-160 160 384 384 640-640z"
				],
				"tags": [
					"checkmark",
					"tick",
					"correct",
					"accept",
					"ok"
				],
				"defaultCode": 57379,
				"grid": 0
			},
			"properties": {
				"order": 12,
				"id": 40,
				"prevSize": 32,
				"code": 57379,
				"name": "checkmark",
				"ligatures": ""
			}
		},
		{
			"icon": {
				"paths": [
					"M304 608c0 114.876 93.124 208 208 208s208-93.124 208-208-93.124-208-208-208-208 93.124-208 208zM960 256h-224c-16-64-32-128-96-128h-256c-64 0-80 64-96 128h-224c-35.2 0-64 28.8-64 64v576c0 35.2 28.8 64 64 64h896c35.2 0 64-28.8 64-64v-576c0-35.2-28.8-64-64-64zM512 892c-156.85 0-284-127.148-284-284 0-156.85 127.15-284 284-284 156.852 0 284 127.15 284 284 0 156.852-127.146 284-284 284zM960 448h-128v-64h128v64z"
				],
				"tags": [
					"camera",
					"photo",
					"picture",
					"image"
				],
				"defaultCode": 57351,
				"grid": 0
			},
			"properties": {
				"order": 13,
				"id": 41,
				"prevSize": 32,
				"code": 57351,
				"name": "camera",
				"ligatures": ""
			}
		},
		{
			"icon": {
				"paths": [
					"M896 192h-768v640h768v-640zM1024 64v0 896h-1024v-896h1024zM832 768h-640v-128l192-320 263 320 185-128v64zM640 352c0 53.019 42.981 96 96 96s96-42.981 96-96c0-53.019-42.981-96-96-96-53.019 0-96 42.981-96 96z"
				],
				"tags": [
					"image",
					"picture",
					"photo",
					"graphic"
				],
				"defaultCode": 57360,
				"grid": 0
			},
			"properties": {
				"order": 14,
				"id": 42,
				"prevSize": 32,
				"code": 57360,
				"name": "image",
				"ligatures": ""
			}
		},
		{
			"icon": {
				"paths": [
					"M864 0h-768c-52.8 0-96 43.2-96 96v832c0 52.8 43.2 96 96 96h768c52.8 0 96-43.2 96-96v-832c0-52.8-43.2-96-96-96zM832 896h-704v-768h704v768zM256 448h448v64h-448zM256 576h448v64h-448zM256 704h448v64h-448zM256 320h448v64h-448z"
				],
				"tags": [
					"file",
					"list",
					"paper",
					"page",
					"document"
				],
				"defaultCode": 57380,
				"grid": 0
			},
			"properties": {
				"order": 15,
				"id": 43,
				"prevSize": 32,
				"code": 57380,
				"name": "file",
				"ligatures": ""
			}
		},
		{
			"icon": {
				"paths": [
					"M512 81.92c-237.568 0-430.080 192.614-430.080 430.080 0 237.568 192.564 430.080 430.080 430.080 237.516 0 430.080-192.564 430.080-430.080 0-237.516-192.564-430.080-430.080-430.080zM770.56 459.674v104.704h-517.12v-104.704h517.12z"
				],
				"tags": [
					"minus",
					"subtract",
					"remove",
					"delete"
				],
				"defaultCode": 57390,
				"grid": 0
			},
			"properties": {
				"order": 16,
				"id": 53,
				"prevSize": 32,
				"code": 57390,
				"name": "minus",
				"ligatures": ""
			}
		},
		{
			"icon": {
				"paths": [
					"M1073.714 544q0 17.714-17.714 37.714l-192 226.286q-24.572 29.142-68.858 49.428t-82 20.286h-621.714q-19.428 0-34.572-7.428t-15.142-24.572q0-17.714 17.714-37.714l192-226.286q24.572-29.142 68.858-49.428t82-20.286h621.714q19.428 0 34.572 7.428t15.142 24.572zM877.714 347.428v91.428h-475.428q-53.714 0-112.572 27.142t-93.714 68.286l-195.43 229.714q0-2.286-0.286-7.142t-0.286-7.142v-548.572q0-52.572 37.714-90.286t90.286-37.714h182.858q52.572 0 90.286 37.714t37.714 90.286v18.286h310.858q52.572 0 90.286 37.714t37.714 90.286z"
				],
				"width": 1096,
				"tags": [
					"folder-open",
					"category",
					"directory"
				],
				"defaultCode": 61564,
				"grid": 0
			},
			"properties": {
				"order": 17,
				"id": 54,
				"prevSize": 32,
				"code": 61564,
				"name": "folder-open",
				"ligatures": ""
			}
		},
		{
			"icon": {
				"paths": [
					"M256 256q0-30.286-21.428-51.714t-51.714-21.428-51.714 21.428-21.428 51.714 21.428 51.714 51.714 21.428 51.714-21.428 21.428-51.714zM865.714 585.142q0 30.286-21.142 51.428l-280.572 281.142q-22.286 21.142-52 21.142-30.286 0-51.428-21.142l-408.572-409.142q-21.714-21.142-36.858-57.714t-15.142-66.858v-237.714q0-29.714 21.714-51.428t51.428-21.714h237.714q30.286 0 66.858 15.142t58.286 36.858l408.572 408q21.142 22.286 21.142 52zM1085.142 585.142q0 30.286-21.142 51.428l-280.572 281.142q-22.286 21.142-52 21.142-20.572 0-33.714-8t-30.286-25.714l268.572-268.572q21.142-21.142 21.142-51.428 0-29.714-21.142-52l-408.572-408q-21.714-21.714-58.286-36.858t-66.858-15.142h128q30.286 0 66.858 15.142t58.286 36.858l408.572 408q21.142 22.286 21.142 52z"
				],
				"width": 1096,
				"tags": [
					"tags",
					"price",
					"ecommerce"
				],
				"defaultCode": 61484,
				"grid": 0
			},
			"properties": {
				"order": 18,
				"id": 55,
				"prevSize": 32,
				"code": 61484,
				"name": "tags",
				"ligatures": ""
			}
		},
		{
			"icon": {
				"paths": [
					"M992.262 871.396l-242.552-206.294c-25.074-22.566-51.89-32.926-73.552-31.926 57.256-67.068 91.842-154.078 91.842-249.176 0-212.078-171.922-384-384-384-212.076 0-384 171.922-384 384 0 212.078 171.922 384 384 384 95.098 0 182.108-34.586 249.176-91.844-1 21.662 9.36 48.478 31.926 73.552l206.294 242.552c35.322 39.246 93.022 42.554 128.22 7.356s31.892-92.898-7.354-128.22zM384 640c-141.384 0-256-114.616-256-256s114.616-256 256-256 256 114.616 256 256-114.614 256-256 256z"
				],
				"tags": [
					"search",
					"magnifier",
					"lookup",
					"find"
				],
				"defaultCode": 57381,
				"grid": 0
			},
			"properties": {
				"order": 19,
				"id": 44,
				"prevSize": 32,
				"code": 57381,
				"name": "search",
				"ligatures": ""
			}
		},
		{
			"icon": {
				"paths": [
					"M0 384h704v128h-704v-128zM0 192h704v128h-704v-128zM0 576h704v128h-704v-128zM0 768h704v128h-704v-128zM768 576l128 192 128-192h-256zM1024 512l-128-192-128 192h256z"
				],
				"tags": [
					"menu",
					"options"
				],
				"defaultCode": 57382,
				"grid": 0
			},
			"properties": {
				"order": 20,
				"id": 45,
				"prevSize": 32,
				"code": 57382,
				"name": "menu",
				"ligatures": ""
			}
		},
		{
			"icon": {
				"paths": [
					"M864 0h-768c-52.8 0-96 43.2-96 96v832c0 52.8 43.2 96 96 96h768c52.8 0 96-43.2 96-96v-832c0-52.8-43.2-96-96-96zM832 896h-704v-768h704v768zM256 576h448v64h-448zM256 704h448v64h-448zM320 288c0 53.019 42.981 96 96 96s96-42.981 96-96c0-53.019-42.981-96-96-96-53.019 0-96 42.981-96 96zM480 384h-128c-52.8 0-96 28.8-96 64v64h320v-64c0-35.2-43.2-64-96-64z"
				],
				"tags": [
					"profile",
					"page",
					"user",
					"paper",
					"file",
					"document"
				],
				"defaultCode": 57383,
				"grid": 0
			},
			"properties": {
				"order": 21,
				"id": 46,
				"prevSize": 32,
				"code": 57383,
				"name": "profile",
				"ligatures": ""
			}
		},
		{
			"icon": {
				"paths": [
					"M320 192c0 106.039 85.961 192 192 192s192-85.961 192-192c0-106.039-85.961-192-192-192-106.039 0-192 85.961-192 192zM768.078 448h-35.424l-199.104 404.244 74.45-372.244-96-96-96 96 74.45 372.244-199.102-404.244h-35.424c-127.924 0-127.924 85.986-127.924 192v320h768v-320c0-106.014 0-192-127.922-192z"
				],
				"tags": [
					"user",
					"profile",
					"avatar",
					"person",
					"talk",
					"member",
					"employee",
					"job",
					"official"
				],
				"defaultCode": 57384,
				"grid": 0
			},
			"properties": {
				"order": 22,
				"id": 47,
				"prevSize": 32,
				"code": 57384,
				"name": "user",
				"ligatures": ""
			}
		},
		{
			"icon": {
				"paths": [
					"M0 1024h512v-1024h-512v1024zM320 128h128v128h-128v-128zM320 384h128v128h-128v-128zM320 640h128v128h-128v-128zM64 128h128v128h-128v-128zM64 384h128v128h-128v-128zM64 640h128v128h-128v-128zM576 320h448v64h-448zM576 1024h128v-256h192v256h128v-576h-448z"
				],
				"tags": [
					"office",
					"home",
					"house",
					"work",
					"building"
				],
				"defaultCode": 57385,
				"grid": 0
			},
			"properties": {
				"order": 23,
				"id": 48,
				"prevSize": 32,
				"code": 57385,
				"name": "office",
				"ligatures": ""
			}
		},
		{
			"icon": {
				"paths": [
					"M898.36 64h-770.36v128h-93.64c-17.6 0-34.36 12.528-34.36 30.128v64c0 17.6 16.76 33.872 34.36 33.872h93.64v64h-93.64c-17.6 0-34.36 12.528-34.36 30.128v64c0 17.6 16.76 33.872 34.36 33.872h93.64v64h-93.64c-17.6 0-34.36 12.528-34.36 30.128v64c0 17.598 16.76 33.872 34.36 33.872h93.64v64h-93.64c-17.6 0-34.36 12.528-34.36 30.128v64c0 17.6 16.76 33.872 34.36 33.872h93.64v128h770.36c35.348 0 61.64-30.526 61.64-65.872v-832c0-35.346-26.292-62.128-61.64-62.128zM320 960h-128v-64h34.36c17.6 0 29.64-16.272 29.64-33.872v-64c0-17.602-12.042-30.128-29.64-30.128h-34.36v-64h34.36c17.6 0 29.64-16.272 29.64-33.872v-64c0-17.602-12.042-30.128-29.64-30.128h-34.36v-64h34.36c17.6 0 29.64-16.272 29.64-33.872v-64c0-17.602-12.042-30.128-29.64-30.128l-34.36 0v-64h34.36c17.6 0 29.64-16.272 29.64-33.872v-64c0-17.602-12.040-30.128-29.64-30.128h-34.36v-64h128v832z"
				],
				"tags": [
					"notebook",
					"notes",
					"book",
					"journal"
				],
				"defaultCode": 57386,
				"grid": 0
			},
			"properties": {
				"order": 24,
				"id": 49,
				"prevSize": 32,
				"code": 57386,
				"name": "notebook",
				"ligatures": ""
			}
		},
		{
			"icon": {
				"paths": [
					"M1024 576l-128-256h-192v-128c0-35.2-28.8-64-64-64h-576c-35.2 0-64 28.8-64 64v512l64 64h81.166c-10.898 18.832-17.166 40.678-17.166 64 0 70.692 57.308 128 128 128s128-57.308 128-128c0-23.322-6.268-45.168-17.166-64h354.334c-10.898 18.832-17.168 40.678-17.168 64 0 70.692 57.308 128 128 128s128-57.308 128-128c0-23.322-6.27-45.168-17.168-64h81.168v-192zM704 576v-160h132.668l80 160h-212.668z"
				],
				"tags": [
					"truck",
					"vehicle",
					"transit",
					"transport"
				],
				"defaultCode": 57387,
				"grid": 0
			},
			"properties": {
				"order": 25,
				"id": 50,
				"prevSize": 32,
				"code": 57387,
				"name": "truck",
				"ligatures": ""
			}
		},
		{
			"icon": {
				"paths": [
					"M512 81.92c-237.568 0-430.080 192.614-430.080 430.080 0 237.568 192.564 430.080 430.080 430.080 237.516 0 430.080-192.564 430.080-430.080 0-237.516-192.564-430.080-430.080-430.080zM600.524 512l156.724 156.724-88.524 88.524-156.724-156.724-156.724 156.724-88.474-88.524 156.674-156.724-156.672-156.672 88.474-88.524 156.722 156.672 156.724-156.672 88.524 88.474-156.724 156.722z"
				],
				"tags": [
					"cross",
					"cancel",
					"close",
					"remove",
					"delete"
				],
				"defaultCode": 57388,
				"grid": 0
			},
			"properties": {
				"order": 26,
				"id": 51,
				"prevSize": 32,
				"code": 57388,
				"name": "cross",
				"ligatures": ""
			}
		},
		{
			"icon": {
				"paths": [
					"M512 81.92c-237.568 0-430.080 192.614-430.080 430.080 0 237.568 192.564 430.080 430.080 430.080 237.516 0 430.080-192.564 430.080-430.080 0-237.516-192.564-430.080-430.080-430.080zM564.326 564.326v206.182h-104.652v-206.182h-206.234v-104.652h206.182l0-206.234h104.704v206.182h206.182v104.704h-206.182z"
				],
				"tags": [
					"plus",
					"add",
					"sum"
				],
				"defaultCode": 57389,
				"grid": 0
			},
			"properties": {
				"order": 27,
				"id": 52,
				"prevSize": 32,
				"code": 57389,
				"name": "plus",
				"ligatures": ""
			}
		},
		{
			"icon": {
				"paths": [
					"M0 0l1024 1024h-1024z"
				],
				"defaultCode": 61440,
				"grid": 0
			},
			"properties": {
				"order": 28,
				"id": 1,
				"prevSize": 32,
				"code": 61440,
				"name": "uniF000",
				"ligatures": ""
			}
		},
		{
			"icon": {
				"paths": [
					"M424 898.858l-372.572-372q-21.142-21.142-21.142-51.714t21.142-51.714l372.572-372q21.142-21.142 51.714-21.142t51.714 21.142l42.858 42.858q21.142 21.142 21.142 51.714t-21.142 51.714l-277.714 277.714 277.714 277.142q21.142 21.714 21.142 52t-21.142 51.428l-42.858 42.858q-21.142 21.142-51.714 21.142t-51.714-21.142z"
				],
				"width": 658,
				"tags": [
					"chevron-left",
					"arrow-left",
					"left",
					"previous"
				],
				"defaultCode": 61523,
				"grid": 0
			},
			"properties": {
				"order": 29,
				"id": 5,
				"prevSize": 32,
				"code": 61523,
				"name": "chevron-left",
				"ligatures": ""
			}
		},
		{
			"icon": {
				"paths": [
					"M628 475.428q0 29.714-21.142 52l-372.572 372q-21.142 21.142-51.428 21.142t-51.428-21.142l-43.428-42.858q-21.142-22.286-21.142-52 0-30.286 21.142-51.428l277.714-277.714-277.714-277.142q-21.142-22.286-21.142-52 0-30.286 21.142-51.428l43.428-42.858q20.572-21.714 51.428-21.714t51.428 21.714l372.572 372q21.142 21.142 21.142 51.428z"
				],
				"width": 658,
				"tags": [
					"chevron-right",
					"right",
					"arrow-right",
					"next"
				],
				"defaultCode": 61524,
				"grid": 0
			},
			"properties": {
				"order": 30,
				"id": 6,
				"prevSize": 32,
				"code": 61524,
				"name": "chevron-right",
				"ligatures": ""
			}
		},
		{
			"icon": {
				"paths": [
					"M768 640v-128h-320v-128h320v-128l192 192zM704 576v256h-320v192l-384-192v-832h704v320h-64v-256h-512l256 128v576h256v-192z"
				],
				"tags": [
					"exit",
					"sign out",
					"log out",
					"quit",
					"close",
					"logout"
				],
				"defaultCode": 57347,
				"grid": 0
			},
			"properties": {
				"order": 31,
				"id": 7,
				"prevSize": 32,
				"code": 57347,
				"name": "exit",
				"ligatures": ""
			}
		},
		{
			"icon": {
				"paths": [
					"M778.188 460.8h-532.428c-28.314 0-30.72 22.938-30.72 51.2s2.406 51.2 30.72 51.2h532.428c28.314 0 30.772-22.938 30.772-51.2s-2.458-51.2-30.772-51.2z"
				],
				"tags": [
					"minus",
					"remove",
					"delete",
					"substract"
				],
				"defaultCode": 57348,
				"grid": 0
			},
			"properties": {
				"order": 32,
				"id": 8,
				"prevSize": 32,
				"code": 57348,
				"name": "minus2",
				"ligatures": ""
			}
		},
		{
			"icon": {
				"paths": [
					"M778.188 460.8h-215.040v-215.040c0-28.262-22.886-30.72-51.2-30.72-28.262 0-51.2 2.406-51.2 30.72l-0 215.040h-214.988c-28.314 0-30.72 22.938-30.72 51.2s2.406 51.2 30.72 51.2h214.988v215.040c0 28.262 22.938 30.72 51.2 30.72 28.314 0 51.2-2.458 51.2-30.72v-215.040h215.040c28.314 0 30.772-22.938 30.772-51.2s-2.458-51.2-30.772-51.2z"
				],
				"tags": [
					"plus",
					"add",
					"sum"
				],
				"defaultCode": 57349,
				"grid": 0
			},
			"properties": {
				"order": 33,
				"id": 9,
				"prevSize": 32,
				"code": 57349,
				"name": "plus2",
				"ligatures": ""
			}
		},
		{
			"icon": {
				"paths": [
					"M976.384 358.4h-928.768c-47.104 0-49.51 22.938-46.9 50.996l42.24 461.21c2.56 28.056 9.216 50.994 56.27 50.994h825.6c48.026 0 53.708-22.938 56.268-50.996l42.24-461.21c2.51-28.056 0.206-50.994-46.95-50.994zM942.284 245.76c-5.632-22.528-33.536-40.96-61.9-40.96h-348.876c-28.416 0-68.046-16.23-88.168-36.148l-30.514-30.104c-20.070-19.918-59.75-36.148-88.116-36.148h-166.706c-28.366 0-54.17 22.886-57.294 50.892l-14.95 133.428h866.868l-10.344-40.96z"
				],
				"tags": [
					"folder",
					"category",
					"directory"
				],
				"defaultCode": 57350,
				"grid": 0
			},
			"properties": {
				"order": 34,
				"id": 10,
				"prevSize": 32,
				"code": 57350,
				"name": "folder",
				"ligatures": ""
			}
		},
		{
			"icon": {
				"paths": [
					"M153.96 939.658c-55.786-71.406-104.174-166.378-124.004-272.96-32.682-175.87-19.384-348.826 48.214-515.838 37.412-92.434 109.596-138.86 206.184-150.484 40.282-4.846 111.976 37.614 118.28 77.29 4.096 25.6-8.696 54.936-17.71 81.328-10.024 29.336-27.806 56.292-35.984 85.988-14.018 51.026-51.186 65.42-96.732 69.92-63.056 6.244-63.444 5.914-77.91 68.088-26.58 114.112-6.188 223.896 32.104 331.676 8.192 23.062 24.374 30.98 50.954 27.316 121.524-16.702 121.64-15.864 160.494 98.002 5.784 16.99 13.34 33.546 17.308 50.954 5.422 23.58 19.716 56.018 9.72 70.050-22.86 32.148-55.050 59.896-100.252 62.564-70.714 4.184-128.736-21.806-190.666-83.894z"
				],
				"width": 446,
				"tags": [
					"phone"
				],
				"defaultCode": 57356,
				"grid": 0
			},
			"properties": {
				"order": 35,
				"id": 11,
				"prevSize": 32,
				"code": 57356,
				"name": "phone",
				"ligatures": ""
			}
		},
		{
			"icon": {
				"paths": [
					"M204.426 0c4.384 1.336 8.716 2.722 13.124 3.984 40.010 11.488 65.536 49.564 60.878 90.862-4.508 39.912-38.55 71.368-79.572 73.566-40.298 2.16-76.6-26.038-85.554-66.398-9.79-44.182 19.368-89.462 63.712-99.104 3.198-0.712 6.306-1.936 9.466-2.91 5.97 0 11.952 0 17.946 0zM316.604 323.446c-5.656 0-9.766 0-15.548 0 0 5.794 0 11.19 0 16.608 0 209.432 0.024 418.878-0.124 628.286-0.024 8.416-0.686 17.258-3.26 25.2-6.856 21.354-28.086 32.544-53.61 29.546-20.23-2.372-37.064-18.982-39.648-39.448-0.662-5.058-0.662-10.228-0.662-15.348-0.024-119.658-0.024-239.328-0.024-359.012 0-5.046 0-10.102 0-16.010-5.12-0.374-9.204-0.674-15.548-1.136 0 6.006 0 11.338 0 16.658-0.024 120.108 0.024 240.202-0.024 360.31-0.024 27.524-11.126 44.782-33.056 52.012-32.056 10.552-61.552-8.966-63.988-42.472-0.388-5.52-0.25-11.102-0.25-16.646-0.024-207.298 0-414.582 0-621.88 0-5.070 0-10.152 0-16.26-5.682 0-10.452 0-16.584 0 0 5.358 0 10.402 0 15.434 0.012 72.26 0.112 144.478-0.026 216.706-0.050 25.026-14.086 39.386-37.314 39-20.256-0.338-34.928-14.224-34.966-34.754-0.262-89.338-0.724-178.662 0.138-267.988 0.512-52.486 44.544-99.366 97.43-100.988 64.024-1.96 128.238-1.598 192.224 1.062 52.374 2.172 95.67 47.492 96.606 100.34 1.598 89.3 0.774 178.65 0.488 267.976-0.074 20.518-15.186 34.528-35.116 34.94-20.156 0.388-34.492-12.676-36.49-33.43-0.512-5.082-0.612-10.228-0.612-15.348-0.050-69.244-0.024-138.478-0.024-207.722-0.012-5.046-0.012-10.066-0.012-15.636z"
				],
				"width": 386,
				"tags": [
					"person"
				],
				"defaultCode": 57357,
				"grid": 0
			},
			"properties": {
				"order": 36,
				"id": 12,
				"prevSize": 32,
				"code": 57357,
				"name": "person",
				"ligatures": ""
			}
		},
		{
			"icon": {
				"paths": [
					"M1.128 509.656c0-142.262-0.148-284.524 0.090-426.77 0.090-44.478 28.954-76.028 73.98-81.594 8.83-1.084 17.794-1.246 26.714-1.262 233.146-0.060 466.246 0.044 699.362-0.192 25.882-0.030 50.502 3.34 71.74 19.144 19.426 14.484 31.15 33.272 31.15 58.502 0 287.506 0.268 574.968 0.090 862.46-0.030 47.164-37.798 83.938-85.184 83.954-244.276 0.134-488.552 0.164-732.842 0-50.562-0.030-85.184-34.964-85.214-85.26-0.050-143.004-0.034-285.994-0.034-428.982 0.058 0 0.118 0 0.148 0zM45.694 513.024c0 137.72 0 275.456 0.030 413.146 0.030 26.342 9.602 37.516 35.796 41.272 8.77 1.276 17.764 1.44 26.684 1.44 229.272 0.074 458.544 0.074 687.802 0.044 8.178 0 16.398-0.134 24.472-1.172 28.806-3.71 38.586-14.87 38.586-43.854 0.030-270.218-0.148-540.42 0.118-810.652 0.060-52.774-12.124-49.672-55.34-58.768-5.714-1.188-11.872-0.208-17.824-0.208-143.656-0.030-287.344-0.030-431-0.030-82.632 0-165.354-2.33-247.882 0.846-55.846 2.152-61.842 9.87-61.606 60.432 0.58 132.51 0.194 265.022 0.164 397.504zM285.4 216.924c166.778 0 332.354 0 497.782 0 10.982 42.192 3.874 51.764-37.858 51.764-139.116 0-278.26 0-417.406 0-44.716 0.016-48.024-3.798-42.518-51.764zM783.642 396.096c9.142 44.714 3.932 51.496-37.62 51.496-142.81 0.014-285.652-0.044-428.462 0.044-29.444 0.030-36.344-8.548-34.594-34.578 1.054-15.092 6.47-18.418 20.302-18.388 156.212 0.4 312.424 0.252 468.636 0.312 3.606-0.014 7.242 0.654 11.738 1.114zM784.102 757.612c8.148 45.324 2.894 51.838-40.232 51.838-139.116 0-278.26 0-417.346 0-42.534 0-48.172-7.064-40.204-51.838 165.324 0 330.944 0 497.782 0zM286.082 577.432c166.334 0 331.508 0 496.372 0 14.528 34.548-0.578 53.574-37.028 53.366-139.264-0.832-278.528-0.326-417.792-0.326-42.754 0-48.468-6.96-41.552-53.040zM247.422 238.502c2.864 65.136-1.87 77.72-74.188 75.048-46.94-1.692-56.172-9.35-56.142-55.756 0.030-17.854 0-35.736 0.52-53.56 0.682-22.514 10.092-32.012 33.080-32.604 20.806-0.578 41.672-0.46 62.494-0.044 25.022 0.52 33.318 8.756 34.164 33.436 0.414 11.146 0.072 22.292 0.072 33.48zM247.258 778.196c1.024 73.030-1.722 75.746-75.686 75.716-43.764-0.044-54.524-10.864-54.464-55.34 0.030-19.366 0.060-38.704 0.578-58.042 0.49-17.854 10.744-27.514 27.974-28.108 24.502-0.832 49.138-0.86 73.668 0 16.992 0.608 27.826 9.334 27.944 27.826 0.046 12.66-0.014 25.304-0.014 37.948zM247.318 598.862c1.81 75.628-3.814 74.128-71.636 72.14-7.42-0.222-14.914-0.55-22.276 0.044-22.766 1.914-33.91-11.888-35.454-31.106-2.196-27.232-1.38-54.91 0.118-82.292 0.89-16.146 11.398-24.784 28.48-24.576 23.73 0.326 47.52 0.238 71.28 0.044 18.922-0.164 29.014 8.86 29.414 27.93 0.268 12.572 0.074 25.186 0.074 37.816zM247.348 418.312c2.138 65.15 0.906 76.948-73.46 74.174-49.33-1.826-56.84-7.88-56.78-58.234 0.030-17.066 0.342-34.118 0.46-51.214 0.118-20.212 10.774-29.71 30.438-29.844 22.988-0.134 46.006-0.044 69.024-0.014 19.664 0.014 30.646 8.89 30.348 29.548-0.148 11.824-0.030 23.696-0.030 35.584z"
				],
				"width": 904,
				"tags": [
					"menu"
				],
				"defaultCode": 57358,
				"grid": 0
			},
			"properties": {
				"order": 37,
				"id": 13,
				"prevSize": 32,
				"code": 57358,
				"name": "menu2",
				"ligatures": ""
			}
		},
		{
			"icon": {
				"paths": [
					"M0 416v192c0 17.672 14.328 32 32 32h960c17.672 0 32-14.328 32-32v-192c0-17.672-14.328-32-32-32h-960c-17.672 0-32 14.328-32 32z"
				],
				"tags": [
					"minus",
					"minimize",
					"subtract"
				],
				"defaultCode": 57344,
				"grid": 0
			},
			"properties": {
				"order": 38,
				"id": 2,
				"prevSize": 32,
				"code": 57344,
				"name": "minus3",
				"ligatures": ""
			}
		},
		{
			"icon": {
				"paths": [
					"M992 384h-352v-352c0-17.672-14.328-32-32-32h-192c-17.672 0-32 14.328-32 32v352h-352c-17.672 0-32 14.328-32 32v192c0 17.672 14.328 32 32 32h352v352c0 17.672 14.328 32 32 32h192c17.672 0 32-14.328 32-32v-352h352c17.672 0 32-14.328 32-32v-192c0-17.672-14.328-32-32-32z"
				],
				"tags": [
					"plus",
					"add",
					"sum"
				],
				"defaultCode": 57345,
				"grid": 0
			},
			"properties": {
				"order": 39,
				"id": 3,
				"prevSize": 32,
				"code": 57345,
				"name": "plus3",
				"ligatures": ""
			}
		},
		{
			"icon": {
				"paths": [
					"M1014.662 822.66c-0.004-0.004-0.008-0.008-0.012-0.010l-310.644-310.65 310.644-310.65c0.004-0.004 0.008-0.006 0.012-0.010 3.344-3.346 5.762-7.254 7.312-11.416 4.246-11.376 1.824-24.682-7.324-33.83l-146.746-146.746c-9.148-9.146-22.45-11.566-33.828-7.32-4.16 1.55-8.070 3.968-11.418 7.31 0 0.004-0.004 0.006-0.008 0.010l-310.648 310.652-310.648-310.65c-0.004-0.004-0.006-0.006-0.010-0.010-3.346-3.342-7.254-5.76-11.414-7.31-11.38-4.248-24.682-1.826-33.83 7.32l-146.748 146.748c-9.148 9.148-11.568 22.452-7.322 33.828 1.552 4.16 3.97 8.072 7.312 11.416 0.004 0.002 0.006 0.006 0.010 0.010l310.65 310.648-310.65 310.652c-0.002 0.004-0.006 0.006-0.008 0.010-3.342 3.346-5.76 7.254-7.314 11.414-4.248 11.376-1.826 24.682 7.322 33.83l146.748 146.746c9.15 9.148 22.452 11.568 33.83 7.322 4.16-1.552 8.070-3.97 11.416-7.312 0.002-0.004 0.006-0.006 0.010-0.010l310.648-310.65 310.648 310.65c0.004 0.002 0.008 0.006 0.012 0.008 3.348 3.344 7.254 5.762 11.414 7.314 11.378 4.246 24.684 1.826 33.828-7.322l146.746-146.748c9.148-9.148 11.57-22.454 7.324-33.83-1.552-4.16-3.97-8.068-7.314-11.414z"
				],
				"tags": [
					"close",
					"cancel",
					"quit",
					"remove",
					"cross"
				],
				"defaultCode": 57346,
				"grid": 0
			},
			"properties": {
				"order": 40,
				"id": 4,
				"prevSize": 32,
				"code": 57346,
				"name": "close",
				"ligatures": ""
			}
		},
		{
			"icon": {
				"paths": [
					"M512 71.68c-243.148 0-440.32 197.172-440.32 440.32 0 243.2 197.172 440.32 440.32 440.32 243.2 0 440.32-197.12 440.32-440.32 0-243.148-197.12-440.32-440.32-440.32zM547.84 868.608v-197.888h-71.68v197.888c-169.318-16.794-303.924-151.45-320.768-320.768l197.888-0v-71.68h-197.888c16.844-169.318 151.45-303.974 320.768-320.768v197.888h71.68v-197.888c169.37 16.794 303.974 151.45 320.768 320.768h-197.888v71.68h197.888c-16.794 169.318-151.398 303.974-320.768 320.768z"
				],
				"tags": [
					"target",
					"cross",
					"goal"
				],
				"defaultCode": 57364,
				"grid": 0
			},
			"properties": {
				"order": 41,
				"id": 18,
				"prevSize": 32,
				"code": 57364,
				"name": "target",
				"ligatures": ""
			}
		},
		{
			"icon": {
				"paths": [
					"M776.806 102.4h-572.006c-56.32 0-102.4 46.080-102.4 102.4v614.4c0 56.32 46.080 102.4 102.4 102.4h614.4c56.32 0 102.4-46.080 102.4-102.4v-556.698l-144.794-160.102zM716.8 409.6c0 28.16-23.040 51.2-51.2 51.2h-307.2c-28.16 0-51.2-23.040-51.2-51.2v-256h409.6v256zM665.6 204.8h-102.4v204.8h102.4v-204.8z"
				],
				"tags": [
					"disk",
					"save",
					"floppy",
					"store"
				],
				"defaultCode": 57365,
				"grid": 0
			},
			"properties": {
				"order": 42,
				"id": 19,
				"prevSize": 32,
				"code": 57365,
				"name": "disk",
				"ligatures": ""
			}
		},
		{
			"icon": {
				"paths": [
					"M292.572 420.572v329.142q0 8-5.142 13.142t-13.142 5.142h-36.572q-8 0-13.142-5.142t-5.142-13.142v-329.142q0-8 5.142-13.142t13.142-5.142h36.572q8 0 13.142 5.142t5.142 13.142zM438.858 420.572v329.142q0 8-5.142 13.142t-13.142 5.142h-36.572q-8 0-13.142-5.142t-5.142-13.142v-329.142q0-8 5.142-13.142t13.142-5.142h36.572q8 0 13.142 5.142t5.142 13.142zM585.142 420.572v329.142q0 8-5.142 13.142t-13.142 5.142h-36.572q-8 0-13.142-5.142t-5.142-13.142v-329.142q0-8 5.142-13.142t13.142-5.142h36.572q8 0 13.142 5.142t5.142 13.142zM658.286 834.286v-541.714h-512v541.714q0 12.572 4 23.142t8.286 15.428 6 4.858h475.428q1.714 0 6-4.858t8.286-15.428 4-23.142zM274.286 219.428h256l-27.428-66.858q-4-5.142-9.714-6.286h-181.142q-5.714 1.142-9.714 6.286zM804.572 237.714v36.572q0 8-5.142 13.142t-13.142 5.142h-54.858v541.714q0 47.428-26.858 82t-64.572 34.572h-475.428q-37.714 0-64.572-33.428t-26.858-80.858v-544h-54.858q-8 0-13.142-5.142t-5.142-13.142v-36.572q0-8 5.142-13.142t13.142-5.142h176.572l40-95.428q8.572-21.142 30.858-36t45.142-14.858h182.858q22.858 0 45.142 14.858t30.858 36l40 95.428h176.572q8 0 13.142 5.142t5.142 13.142z"
				],
				"width": 804,
				"tags": [
					"trash",
					"remove",
					"delete",
					"bin"
				],
				"defaultCode": 61460,
				"grid": 0
			},
			"properties": {
				"order": 43,
				"id": 20,
				"prevSize": 32,
				"code": 61460,
				"name": "trash",
				"ligatures": ""
			}
		},
		{
			"icon": {
				"paths": [
					"M219.428 676.572v36.572q0 7.428-5.428 12.858t-12.858 5.428h-36.572q-7.428 0-12.858-5.428t-5.428-12.858v-36.572q0-7.428 5.428-12.858t12.858-5.428h36.572q7.428 0 12.858 5.428t5.428 12.858zM219.428 530.286v36.572q0 7.428-5.428 12.858t-12.858 5.428h-36.572q-7.428 0-12.858-5.428t-5.428-12.858v-36.572q0-7.428 5.428-12.858t12.858-5.428h36.572q7.428 0 12.858 5.428t5.428 12.858zM219.428 384v36.572q0 7.428-5.428 12.858t-12.858 5.428h-36.572q-7.428 0-12.858-5.428t-5.428-12.858v-36.572q0-7.428 5.428-12.858t12.858-5.428h36.572q7.428 0 12.858 5.428t5.428 12.858zM877.714 676.572v36.572q0 7.428-5.428 12.858t-12.858 5.428h-548.572q-7.428 0-12.858-5.428t-5.428-12.858v-36.572q0-7.428 5.428-12.858t12.858-5.428h548.572q7.428 0 12.858 5.428t5.428 12.858zM877.714 530.286v36.572q0 7.428-5.428 12.858t-12.858 5.428h-548.572q-7.428 0-12.858-5.428t-5.428-12.858v-36.572q0-7.428 5.428-12.858t12.858-5.428h548.572q7.428 0 12.858 5.428t5.428 12.858zM877.714 384v36.572q0 7.428-5.428 12.858t-12.858 5.428h-548.572q-7.428 0-12.858-5.428t-5.428-12.858v-36.572q0-7.428 5.428-12.858t12.858-5.428h548.572q7.428 0 12.858 5.428t5.428 12.858zM950.858 786.286v-475.428q0-7.428-5.428-12.858t-12.858-5.428h-841.142q-7.428 0-12.858 5.428t-5.428 12.858v475.428q0 7.428 5.428 12.858t12.858 5.428h841.142q7.428 0 12.858-5.428t5.428-12.858zM1024 164.572v621.714q0 37.714-26.858 64.572t-64.572 26.858h-841.142q-37.714 0-64.572-26.858t-26.858-64.572v-621.714q0-37.714 26.858-64.572t64.572-26.858h841.142q37.714 0 64.572 26.858t26.858 64.572z"
				],
				"tags": [
					"list-alt"
				],
				"defaultCode": 61474,
				"grid": 0
			},
			"properties": {
				"order": 44,
				"id": 21,
				"prevSize": 32,
				"code": 61474,
				"name": "list-alt",
				"ligatures": ""
			}
		},
		{
			"icon": {
				"paths": [
					"M863.428 603.428q0 2.858-0.572 4-36.572 153.142-153.142 248.286t-273.142 95.142q-83.428 0-161.428-31.428t-139.142-89.714l-73.714 73.714q-10.858 10.858-25.714 10.858t-25.714-10.858-10.858-25.714v-256q0-14.858 10.858-25.714t25.714-10.858h256q14.858 0 25.714 10.858t10.858 25.714-10.858 25.714l-78.286 78.286q40.572 37.714 92 58.286t106.858 20.572q76.572 0 142.858-37.142t106.286-102.286q6.286-9.714 30.286-66.858 4.572-13.142 17.142-13.142h109.714q7.428 0 12.858 5.428t5.428 12.858zM877.714 146.286v256q0 14.858-10.858 25.714t-25.714 10.858h-256q-14.858 0-25.714-10.858t-10.858-25.714 10.858-25.714l78.858-78.858q-84.572-78.286-199.428-78.286-76.572 0-142.858 37.142t-106.286 102.286q-6.286 9.714-30.286 66.858-4.572 13.142-17.142 13.142h-113.714q-7.428 0-12.858-5.428t-5.428-12.858v-4q37.142-153.142 154.286-248.286t274.286-95.142q83.428 0 162.286 31.714t140 89.428l74.286-73.714q10.858-10.858 25.714-10.858t25.714 10.858 10.858 25.714z"
				],
				"width": 876,
				"tags": [
					"refresh",
					"synchronize"
				],
				"defaultCode": 61473,
				"grid": 0
			},
			"properties": {
				"order": 45,
				"id": 22,
				"prevSize": 32,
				"code": 61473,
				"name": "refresh",
				"ligatures": ""
			}
		},
		{
			"icon": {
				"paths": [
					"M219.428 877.714h512v-146.286h-512v146.286zM219.428 512h512v-219.428h-91.428q-22.858 0-38.858-16t-16-38.858v-91.428h-365.714v365.714zM877.714 548.572q0-14.858-10.858-25.714t-25.714-10.858-25.714 10.858-10.858 25.714 10.858 25.714 25.714 10.858 25.714-10.858 10.858-25.714zM950.858 548.572v237.714q0 7.428-5.428 12.858t-12.858 5.428h-128v91.428q0 22.858-16 38.858t-38.858 16h-548.572q-22.858 0-38.858-16t-16-38.858v-91.428h-128q-7.428 0-12.858-5.428t-5.428-12.858v-237.714q0-45.142 32.286-77.428t77.428-32.286h36.572v-310.858q0-22.858 16-38.858t38.858-16h384q22.858 0 50.286 11.428t43.428 27.428l86.858 86.858q16 16 27.428 43.428t11.428 50.286v146.286h36.572q45.142 0 77.428 32.286t32.286 77.428z"
				],
				"width": 950,
				"tags": [
					"print"
				],
				"defaultCode": 61487,
				"grid": 0
			},
			"properties": {
				"order": 46,
				"id": 23,
				"prevSize": 32,
				"code": 61487,
				"name": "print",
				"ligatures": ""
			}
		},
		{
			"icon": {
				"paths": [
					"M920.572 694.858q0 30.286-21.142 51.428l-42.858 42.858q-21.714 21.714-52 21.714-30.858 0-51.428-21.714l-277.714-277.142-277.714 277.142q-20.572 21.714-51.428 21.714t-51.428-21.714l-42.858-42.858q-21.714-20.572-21.714-51.428 0-30.286 21.714-52l372-372q21.142-21.142 51.428-21.142 29.714 0 52 21.142l371.428 372q21.714 21.714 21.714 52z"
				],
				"width": 950,
				"tags": [
					"chevron-up",
					"upload",
					"top"
				],
				"defaultCode": 61559,
				"grid": 0
			},
			"properties": {
				"order": 47,
				"id": 24,
				"prevSize": 32,
				"code": 61559,
				"name": "chevron-up",
				"ligatures": ""
			}
		},
		{
			"icon": {
				"paths": [
					"M920.572 402.286q0 30.286-21.142 51.428l-372 372q-21.714 21.714-52 21.714-30.858 0-51.428-21.714l-372-372q-21.714-20.572-21.714-51.428 0-30.286 21.714-52l42.286-42.858q22.286-21.142 52-21.142 30.286 0 51.428 21.142l277.714 277.714 277.714-277.714q21.142-21.142 51.428-21.142 29.714 0 52 21.142l42.858 42.858q21.142 22.286 21.142 52z"
				],
				"width": 950,
				"tags": [
					"chevron-down",
					"download",
					"bottom"
				],
				"defaultCode": 61560,
				"grid": 0
			},
			"properties": {
				"order": 48,
				"id": 25,
				"prevSize": 32,
				"code": 61560,
				"name": "chevron-down",
				"ligatures": ""
			}
		},
		{
			"icon": {
				"paths": [
					"M338.858 512q-92.572 2.858-151.428 73.142h-76.572q-46.858 0-78.858-23.142t-32-67.714q0-201.714 70.858-201.714 3.428 0 24.858 12t55.714 24.286 68 12.286q38.286 0 76-13.142-2.858 21.142-2.858 37.714 0 79.428 46.286 146.286zM950.858 876q0 68.572-41.714 108.286t-110.858 39.714h-499.428q-69.142 0-110.858-39.714t-41.714-108.286q0-30.286 2-59.142t8-62.286 15.142-62 24.572-55.714 35.428-46.286 48.858-30.572 63.714-11.428q5.714 0 24.572 12.286t41.714 27.428 61.142 27.428 77.142 12.286 77.142-12.286 61.142-27.428 41.714-27.428 24.572-12.286q34.858 0 63.714 11.428t48.858 30.572 35.428 46.286 24.572 55.714 15.142 62 8 62.286 2 59.142zM365.714 146.286q0 60.572-42.858 103.428t-103.428 42.858-103.428-42.858-42.858-103.428 42.858-103.428 103.428-42.858 103.428 42.858 42.858 103.428zM768 365.714q0 90.858-64.286 155.142t-155.142 64.286-155.142-64.286-64.286-155.142 64.286-155.142 155.142-64.286 155.142 64.286 64.286 155.142zM1097.142 494.286q0 44.572-32 67.714t-78.858 23.142h-76.572q-58.858-70.286-151.428-73.142 46.286-66.858 46.286-146.286 0-16.572-2.858-37.714 37.714 13.142 76 13.142 33.714 0 68-12.286t55.714-24.286 24.858-12q70.858 0 70.858 201.714zM1024 146.286q0 60.572-42.858 103.428t-103.428 42.858-103.428-42.858-42.858-103.428 42.858-103.428 103.428-42.858 103.428 42.858 42.858 103.428z"
				],
				"width": 1096,
				"tags": [
					"group",
					"people",
					"users",
					"team",
					"members",
					"community"
				],
				"defaultCode": 61632,
				"grid": 0
			},
			"properties": {
				"order": 49,
				"id": 26,
				"prevSize": 32,
				"code": 61632,
				"name": "group2",
				"ligatures": ""
			}
		},
		{
			"icon": {
				"paths": [
					"M384 128c0 70.692 57.308 128 128 128s128-57.308 128-128c0-70.692-57.308-128-128-128-70.692 0-128 57.308-128 128zM655.53 240.47c0 70.692 57.308 128 128 128s128-57.308 128-128c0-70.692-57.308-128-128-128-70.692 0-128 57.308-128 128zM832 512c0 35.346 28.654 64 64 64s64-28.654 64-64c0-35.346-28.654-64-64-64-35.346 0-64 28.654-64 64zM719.53 783.53c0 35.346 28.654 64 64 64s64-28.654 64-64c0-35.346-28.654-64-64-64-35.346 0-64 28.654-64 64zM448.002 896c-0 0-0 0-0 0 0 35.346 28.654 64 64 64 35.346 0 64-28.654 64-64 0-0 0-0 0-0 0-35.346-28.654-64-64-64-35.346 0-64 28.654-64 64zM176.472 783.53c-0 0-0 0-0 0 0 35.346 28.654 64 64 64 35.346 0 64-28.654 64-64 0-0 0-0 0-0 0-35.346-28.654-64-64-64-35.346 0-64 28.654-64 64zM144.472 240.47c-0 0-0 0-0 0 0 53.019 42.981 96 96 96 53.019 0 96-42.981 96-96 0-0 0-0 0-0 0-53.019-42.981-96-96-96-53.019 0-96 42.981-96 96zM56 512c0 39.765 32.235 72 72 72 39.765 0 72-32.235 72-72 0-39.765-32.235-72-72-72-39.765 0-72 32.235-72 72z"
				],
				"tags": [
					"spinner",
					"loading",
					"busy",
					"wait",
					"wheel"
				],
				"defaultCode": 57370,
				"grid": 0
			},
			"properties": {
				"order": 50,
				"id": 31,
				"prevSize": 32,
				"code": 57370,
				"name": "spinner",
				"ligatures": ""
			}
		},
		{
			"icon": {
				"paths": [
					"M1024 512c-1.278-66.862-15.784-133.516-42.576-194.462-26.704-61-65.462-116.258-113.042-161.92-47.552-45.696-103.944-81.82-164.984-105.652-61.004-23.924-126.596-35.352-191.398-33.966-64.81 1.282-129.332 15.374-188.334 41.356-59.048 25.896-112.542 63.47-156.734 109.576-44.224 46.082-79.16 100.708-102.186 159.798-23.114 59.062-34.128 122.52-32.746 185.27 1.286 62.76 14.964 125.148 40.134 182.206 25.088 57.1 61.476 108.828 106.11 151.548 44.61 42.754 97.472 76.504 154.614 98.72 57.118 22.304 118.446 32.902 179.142 31.526 60.708-1.29 120.962-14.554 176.076-38.914 55.15-24.282 105.116-59.48 146.366-102.644 41.282-43.14 73.844-94.236 95.254-149.43 13.034-33.458 21.88-68.4 26.542-103.798 1.246 0.072 2.498 0.12 3.762 0.12 35.346 0 64-28.652 64-64 0-1.796-0.094-3.572-0.238-5.332h0.238zM922.306 681.948c-23.472 53.202-57.484 101.4-99.178 141.18-41.67 39.81-91 71.186-144.244 91.79-53.228 20.678-110.29 30.452-166.884 29.082-56.604-1.298-112.596-13.736-163.82-36.474-51.25-22.666-97.684-55.49-135.994-95.712-38.338-40.198-68.528-87.764-88.322-139.058-19.87-51.284-29.228-106.214-27.864-160.756 1.302-54.552 13.328-108.412 35.254-157.69 21.858-49.3 53.498-93.97 92.246-130.81 38.73-36.868 84.53-65.87 133.874-84.856 49.338-19.060 102.136-28.006 154.626-26.644 52.5 1.306 104.228 12.918 151.562 34.034 47.352 21.050 90.256 51.502 125.624 88.782 35.396 37.258 63.21 81.294 81.39 128.688 18.248 47.392 26.782 98.058 25.424 148.496h0.238c-0.144 1.76-0.238 3.536-0.238 5.332 0 33.012 24.992 60.174 57.086 63.624-6.224 34.822-16.53 68.818-30.78 100.992z"
				],
				"tags": [
					"spinner",
					"loading",
					"busy",
					"wait",
					"wheel"
				],
				"defaultCode": 57371,
				"grid": 0
			},
			"properties": {
				"order": 51,
				"id": 32,
				"prevSize": 32,
				"code": 57371,
				"name": "spinner2",
				"ligatures": ""
			}
		},
		{
			"icon": {
				"paths": [
					"M192 512c0-12.18 0.704-24.196 2.030-36.022l-184.98-60.104c-5.916 31.14-9.050 63.264-9.050 96.126 0 147.23 62.166 279.922 161.654 373.324l114.284-157.296c-52.124-56.926-83.938-132.758-83.938-216.028zM832 512c0 83.268-31.812 159.102-83.938 216.028l114.284 157.296c99.488-93.402 161.654-226.094 161.654-373.324 0-32.862-3.132-64.986-9.048-96.126l-184.98 60.104c1.324 11.828 2.028 23.842 2.028 36.022zM576 198.408c91.934 18.662 169.544 76.742 214.45 155.826l184.978-60.102c-73.196-155.42-222.24-268.060-399.428-290.156v194.432zM233.55 354.232c44.906-79.084 122.516-137.164 214.45-155.826v-194.43c-177.188 22.096-326.23 134.736-399.426 290.154l184.976 60.102zM644.556 803.328c-40.39 18.408-85.272 28.672-132.556 28.672s-92.166-10.264-132.554-28.67l-114.292 157.31c73.206 40.366 157.336 63.36 246.846 63.36s173.64-22.994 246.848-63.36l-114.292-157.312z"
				],
				"tags": [
					"spinner",
					"loading",
					"busy",
					"wait",
					"wheel"
				],
				"defaultCode": 57372,
				"grid": 0
			},
			"properties": {
				"order": 52,
				"id": 33,
				"prevSize": 32,
				"code": 57372,
				"name": "spinner3",
				"ligatures": ""
			}
		},
		{
			"icon": {
				"paths": [
					"M512 0c-282.77 0-512 229.23-512 512s229.23 512 512 512 512-229.23 512-512-229.23-512-512-512zM512 256c141.384 0 256 114.616 256 256s-114.616 256-256 256-256-114.616-256-256 114.616-256 256-256zM817.47 817.47c-81.594 81.594-190.080 126.53-305.47 126.53-115.392 0-223.876-44.936-305.47-126.53-81.594-81.594-126.53-190.078-126.53-305.47 0-115.39 44.936-223.876 126.53-305.47l67.882 67.882c0 0 0 0 0 0-131.006 131.006-131.006 344.17 0 475.176 63.462 63.462 147.838 98.412 237.588 98.412 89.748 0 174.124-34.95 237.588-98.412 131.006-131.006 131.006-344.168 0-475.176l67.882-67.882c81.594 81.594 126.53 190.080 126.53 305.47 0 115.392-44.936 223.876-126.53 305.47z"
				],
				"tags": [
					"spinner",
					"loading",
					"busy",
					"wait",
					"wheel"
				],
				"defaultCode": 57373,
				"grid": 0
			},
			"properties": {
				"order": 53,
				"id": 34,
				"prevSize": 32,
				"code": 57373,
				"name": "spinner4",
				"ligatures": ""
			}
		},
		{
			"icon": {
				"paths": [
					"M512 0c-278.748 0-505.458 222.762-511.848 499.974 5.92-241.864 189.832-435.974 415.848-435.974 229.75 0 416 200.576 416 448 0 53.020 42.98 96 96 96 53.020 0 96-42.98 96-96 0-282.77-229.23-512-512-512zM512 1024c278.748 0 505.458-222.762 511.848-499.974-5.92 241.864-189.832 435.974-415.848 435.974-229.75 0-416-200.576-416-448 0-53.020-42.98-96-96-96-53.020 0-96 42.98-96 96 0 282.77 229.23 512 512 512z"
				],
				"tags": [
					"spinner",
					"loading",
					"busy",
					"wait",
					"wheel"
				],
				"defaultCode": 57374,
				"grid": 0
			},
			"properties": {
				"order": 54,
				"id": 35,
				"prevSize": 32,
				"code": 57374,
				"name": "spinner5",
				"ligatures": ""
			}
		},
		{
			"icon": {
				"paths": [
					"M1024 384h-384l143.53-143.53c-72.53-72.526-168.96-112.47-271.53-112.47-102.57 0-199 39.944-271.53 112.47-72.526 72.53-112.47 168.96-112.47 271.53 0 102.57 39.944 199 112.47 271.53 72.53 72.526 168.96 112.47 271.53 112.47 102.57 0 199-39.944 271.528-112.472 6.056-6.054 11.86-12.292 17.456-18.668l96.32 84.282c-93.846 107.166-231.664 174.858-385.304 174.858-282.77 0-512-229.23-512-512 0-282.77 229.23-512 512-512 141.386 0 269.368 57.326 362.016 149.984l149.984-149.984v384z"
				],
				"tags": [
					"spinner",
					"loading",
					"busy",
					"wait",
					"wheel",
					"repeat"
				],
				"defaultCode": 57375,
				"grid": 0
			},
			"properties": {
				"order": 55,
				"id": 36,
				"prevSize": 32,
				"code": 57375,
				"name": "spinner6",
				"ligatures": ""
			}
		},
		{
			"icon": {
				"paths": [
					"M1024 608.094v-192.188l-146.774-24.462c-5.958-18.132-13.222-35.668-21.694-52.5l86.454-121.034-135.896-135.898-120.826 86.304c-16.91-8.554-34.538-15.888-52.768-21.902l-24.402-146.414h-192.188l-24.402 146.416c-18.23 6.014-35.858 13.348-52.766 21.902l-120.828-86.304-135.898 135.898 86.454 121.036c-8.47 16.83-15.734 34.366-21.692 52.498l-146.774 24.46v192.188l147.118 24.52c5.96 17.968 13.21 35.348 21.642 52.030l-86.748 121.448 135.898 135.896 121.654-86.894c16.602 8.35 33.89 15.528 51.764 21.434l24.578 147.472h192.188l24.578-147.474c17.874-5.906 35.162-13.084 51.766-21.432l121.652 86.892 135.896-135.896-86.744-121.446c8.432-16.682 15.678-34.062 21.64-52.032l147.118-24.518zM512 640c-70.692 0-128-57.306-128-128 0-70.692 57.308-128 128-128 70.694 0 128 57.308 128 128 0 70.694-57.306 128-128 128z"
				],
				"tags": [
					"cog",
					"preferences",
					"settings",
					"gear",
					"generate",
					"control",
					"options"
				],
				"defaultCode": 57376,
				"grid": 0
			},
			"properties": {
				"order": 56,
				"id": 37,
				"prevSize": 32,
				"code": 57376,
				"name": "cog",
				"ligatures": ""
			}
		},
		{
			"icon": {
				"paths": [
					"M704 0c-176.73 0-320 143.268-320 320 0 20.026 1.858 39.616 5.376 58.624l-389.376 389.376v192c0 35.346 28.654 64 64 64h64v-64h128v-128h128v-128h128l83.042-83.042c34.010 12.316 70.696 19.042 108.958 19.042 176.73 0 320-143.268 320-320s-143.27-320-320-320zM799.874 320.126c-53.020 0-96-42.98-96-96s42.98-96 96-96 96 42.98 96 96-42.98 96-96 96z"
				],
				"tags": [
					"key",
					"password",
					"login",
					"log in",
					"signin",
					"sign in"
				],
				"defaultCode": 57377,
				"grid": 0
			},
			"properties": {
				"order": 57,
				"id": 38,
				"prevSize": 32,
				"code": 57377,
				"name": "key",
				"ligatures": ""
			}
		},
		{
			"icon": {
				"paths": [
					"M384 512h-320v-128h320v-128l192 192-192 192zM1024 0v832l-384 192v-192h-384v-256h64v192h320v-576l256-128h-576v256h-64v-320z"
				],
				"tags": [
					"enter",
					"sign in",
					"log in",
					"login"
				],
				"defaultCode": 57378,
				"grid": 0
			},
			"properties": {
				"order": 58,
				"id": 39,
				"prevSize": 32,
				"code": 57378,
				"name": "enter",
				"ligatures": ""
			}
		},
		{
			"icon": {
				"paths": [
					"M1024 832v-768h-1024v768h448v64h-192v64h512v-64h-192v-64h448zM128 192h768v512h-768v-512z"
				],
				"tags": [
					"screen",
					"monitor",
					"computer",
					"pc",
					"desktop"
				],
				"defaultCode": 57352,
				"grid": 0
			},
			"properties": {
				"order": 59,
				"id": 56,
				"prevSize": 32,
				"code": 57352,
				"name": "screen",
				"ligatures": ""
			}
		},
		{
			"icon": {
				"paths": [
					"M1024 429.256c0-200.926-58.792-363.938-131.482-365.226 0.292-0.006 0.578-0.030 0.872-0.030h-82.942c0 0-194.8 146.336-475.23 203.754-8.56 45.292-14.030 99.274-14.030 161.502 0 62.228 5.466 116.208 14.030 161.5 280.428 57.418 475.23 203.756 475.23 203.756h82.942c-0.292 0-0.578-0.024-0.872-0.032 72.696-1.288 131.482-164.298 131.482-365.224zM864.824 739.252c-9.382 0-19.532-9.742-24.746-15.548-12.63-14.064-24.792-35.96-35.188-63.328-23.256-61.232-36.066-143.31-36.066-231.124 0-87.81 12.81-169.89 36.066-231.122 10.394-27.368 22.562-49.266 35.188-63.328 5.214-5.812 15.364-15.552 24.746-15.552 9.38 0 19.536 9.744 24.744 15.552 12.634 14.064 24.796 35.958 35.188 63.328 23.258 61.23 36.068 143.312 36.068 231.122 0 87.804-12.81 169.888-36.068 231.124-10.39 27.368-22.562 49.264-35.188 63.328-5.208 5.806-15.36 15.548-24.744 15.548zM251.812 429.256c0-51.95 3.81-102.43 11.052-149.094-47.372 6.554-88.942 10.324-140.34 10.324-67.058 0-67.058 0-67.058 0l-55.466 94.686v88.17l55.46 94.686c0 0 0 0 67.060 0 51.398 0 92.968 3.774 140.34 10.324-7.236-46.664-11.048-97.146-11.048-149.096zM368.15 642.172l-127.998-24.51 81.842 321.544c4.236 16.634 20.744 25.038 36.686 18.654l118.556-47.452c15.944-6.376 22.328-23.964 14.196-39.084l-123.282-229.152zM864.824 548.73c-3.618 0-7.528-3.754-9.538-5.992-4.87-5.42-9.556-13.86-13.562-24.408-8.962-23.6-13.9-55.234-13.9-89.078 0-33.844 4.938-65.478 13.9-89.078 4.006-10.548 8.696-18.988 13.562-24.408 2.010-2.24 5.92-5.994 9.538-5.994 3.616 0 7.53 3.756 9.538 5.994 4.87 5.42 9.556 13.858 13.56 24.408 8.964 23.598 13.902 55.234 13.902 89.078 0 33.842-4.938 65.478-13.902 89.078-4.004 10.548-8.696 18.988-13.56 24.408-2.008 2.238-5.92 5.992-9.538 5.992z"
				],
				"tags": [
					"bullhorn",
					"megaphone",
					"announcement",
					"advertisement",
					"news"
				],
				"grid": 16,
				"defaultCode": 58884
			},
			"properties": {
				"order": 60,
				"id": 28,
				"prevSize": 32,
				"name": "bullhorn",
				"ligatures": "",
				"code": 58884
			}
		}
	],
	"height": 1024,
	"metadata": {
		"name": "Kiper"
	},
	"preferences": {
		"fontPref": {
			"prefix": "icon-",
			"metadata": {
				"fontFamily": "Kiper"
			},
			"showGlyphs": true,
			"metrics": {
				"emSize": 1024,
				"baseline": 6.25,
				"whitespace": 50
			},
			"resetPoint": 58880,
			"showQuickUse": true,
			"quickUsageToken": false,
			"showMetrics": true,
			"showMetadata": false
		},
		"imagePref": {
			"color": 0,
			"height": 32,
			"columns": 16,
			"margin": 16,
			"png": false,
			"sprites": true
		},
		"historySize": 100,
		"showCodes": true,
		"gridSize": 16,
		"showLiga": false,
		"showGrid": true,
		"showGlyphs": true,
		"showQuickUse": true
	}
}