<?xml version="1.0" standalone="no"?>
<!DOCTYPE svg PUBLIC "-//W3C//DTD SVG 1.1//EN" "http://www.w3.org/Graphics/SVG/1.1/DTD/svg11.dtd">
<svg xmlns="http://www.w3.org/2000/svg"><defs><font id="flaticon" horiz-adv-x="512"><font-face units-per-em="512" ascent="448" descent="-64" x-height="240" cap-height="480"/><missing-glyph horiz-adv-x="512"/><glyph unicode="&#xE000;" glyph-name="burger21" horiz-adv-x="512" d="M429.34743232385 -64H50.427512870619c-10.899128071341 0 -19.769271210483 8.8676037337195 -19.769271210483 19.766731805061v31.087401176459c0 2.8035035859182 2.2753072581365 5.0788108440547 5.0788108440547 5.0788108440547h10.35823471645 c-2.8365158564046 3.9665512692067 -4.5049052186765 8.819355030701 -4.5049052186765 14.053069605499s1.670928767694 10.086518336293 4.5049052186765 14.050530200077h-10.35823471645c-2.8035035859182 0 -5.0788108440547 2.2753072581365 -5.0788108440547 5.0788108440547c0 49.515866324111 40.285127615042 89.800993939153 89.800993939153 89.800993939153 h102.48532402218c15.779865292478 0 30.950273283669 -4.0325758101794 44.431976669213 -11.744750076877l-16.033805834681 176.15347531519h-11.026098342443c-1.5338008749045 0 -2.9863407763042 0.69325768021347 -3.9487754312525 1.8842388231443 c-0.9649740603704 1.1935205483529 -1.3382666574084 2.7577942883217 -1.0157621688109 4.2585828927399l5.4673398736249 25.508327464265c0.50280227356142 2.3413317991092 2.5724176925137 4.0147999722253 4.9670770054855 4.0147999722253h107.42700697345V356.96739443116 c0 17.930741684935 9.0605985457936 34.33276130581 24.238624753251 43.878386287211L451.1761613316 447.22040253544c2.3768834750176 1.4931703881521 5.5105097657994 0.7795974645624 7.0036801539515 -1.5972860104552c1.4931703881521 -2.3743440695956 0.7795974645624 -5.5079703603773 -1.5947466050332 -7.0036801539515 l-73.729097023142 -46.374621817064c-12.204382458263 -7.6740831853667 -19.48993661406 -20.863754947377 -19.48993661406 -35.279959528226v-41.971292815268h107.42954637887c2.3946593129718 0 4.4642747319241 -1.673468173116 4.9670770054855 -4.0147999722253l5.4648004682029 -25.508327464265 c0.31996508317545 -1.5007886044182 -0.053327513862575 -3.065062344387 -1.0157621688109 -4.2585828927399c-0.96243465494837 -1.1935205483529 -2.414974556348 -1.8842388231443 -3.9487754312525 -1.8842388231443h-11.026098342443l-30.830921228834 -338.71097400085 C434.16468440944 -61.99640912202 431.97317753023 -64 429.34743232385 -64zM369.07972344288 -53.842378311891h55.630754580353l30.325579549851 333.16999136999h-95.364831218815 c-3.989405918005 -2.7908065588081 -23.695191992937 -19.936871968337 -23.695191992937 -86.47691224172c0 -40.165775560207 18.469095634405 -60.376903314122 36.328733967523 -79.922706847467c15.960163077442 -17.463491087282 32.461219509776 -35.521203043319 32.461219509776 -66.288639136602 C404.76598783863 -0.87546001924393 381.26633006319 -37.85936058565 369.07972344288 -53.842378311891zM291.86910158614 -53.842378311891h64.127605122457c7.1103351816766 8.3241709734057 38.611659441926 48.180139072125 38.611659441926 100.4817331442 c0 26.826278878297 -13.809286684985 41.940819950204 -29.799922627491 59.437323307972c-18.276100822331 19.997817698465 -38.990030849808 42.664550495482 -38.990030849808 86.774022676097c0 50.204045193481 11.031177153287 74.82865957088 19.809901697235 86.47691224172h-84.08479233417 l16.89720367817 -185.62545753936c0 -0.020315243376219 0.0025394054220274 -0.040630486752438 0.0050788108440547 -0.055866919284602l6.1961492297468 -68.068762337443c0.0025394054220274 -0.022854648798246 0.0025394054220274 -0.045709297596492 0.0050788108440547 -0.063485135550684l3.3139240757457 -36.417613157294 c0 -0.017775837954192 0.0025394054220274 -0.035551675908383 0.0050788108440547 -0.050788108440547l0.14982491989961 -1.6531529297398c0.0025394054220274 -0.025394054220274 0.0050788108440547 -0.053327513862575 0.0076182162660821 -0.076182162660821L291.86910158614 -53.842378311891zM40.815863348246 -18.222138457113v-26.008590332404 c0 -5.2997391157711 4.3119104066025 -9.6091101169515 9.6116495223736 -9.6091101169515h231.24333654066l-3.2428207239289 35.617700449356H40.815863348246zM65.798533890151 -8.0645167690033h209.08194542262c0.87609487059944 0 1.7445715249328 0.081260973504875 2.597811746734 0.24632232593665 l-2.5368660166053 27.859816885062c-0.020315243376219 0 -0.040630486752438 0 -0.060945730128657 0H65.798533890151c-7.7477259426055 0 -14.053069605499 -6.3028042574719 -14.053069605499 -14.050530200077C51.748003690073 -1.7617125115314 58.050807947545 -8.0645167690033 65.798533890151 -8.0645167690033zM65.798533890151 30.196704724683h208.22108698456l-5.4825763061571 60.224538988801c-13.410600033726 9.3907212506572 -29.124440785232 14.340022418188 -45.592484947079 14.340022418188H120.45923559929c-42.209996924939 0 -76.85764450308 -33.00465227009 -79.483389709456 -74.564561406989H65.798533890151zM358.39898423783 289.48777415163h111.57893483846l-3.2885300215254 15.350705776155H249.88765114918l-3.2885300215254 -15.350705776155h111.57385602762C358.24915931793 289.48523474621 358.32534148059 289.48523474621 358.39898423783 289.48777415163z"/><glyph unicode="&#xE001;" glyph-name="chat21" horiz-adv-x="512" d="M342.64793923289 378.13309942469c-17.489604947463 0 -34.370654293096 -2.2342010312128 -50.253483752317 -6.3770966089389c-26.446222510513 10.387902598671 -55.948431988973 16.227205885063 -87.068738920359 16.227205885063 C92.110787193502 387.98415219787 0 311.07687658248 0 216.54884992868c0 -50.140264105465 25.739543214745 -97.016971890422 70.895312367551 -129.6242301838v-90.909715439813l94.203463666149 52.432961954218 c13.307082493338 -2.2125005988995 26.815129859839 -3.339979582134 40.221279544173 -3.339979582134c56.118261459251 0 107.02936266037 18.909568018398 144.13144093377 49.481703159609c8.4754340639293 0.2868231053584 16.977286045457 1.0954000832931 25.388562309504 2.4596968278597l79.574541795814 -44.28586486616 v76.920484574192c36.707696503533 26.942501962548 57.585399383041 65.429633915771 57.585399383041 106.60950646996C512.01132196469 314.50271439681 436.02961696231 378.13309942469 342.64793923289 378.13309942469zM205.32571656022 72.737254497275 c-13.379731766735 0 -26.874570174436 1.2623990623998 -40.106172903207 3.7437963225728l-4.90618469692 0.9180226365583l-61.796226748879 -34.392354725409v58.517574475456l-6.1365048593784 4.1004382101566c-41.152511139531 27.502939214465 -64.757864011116 67.939336087657 -64.757864011116 110.92506200913 c0 79.297153661027 79.717953348493 143.81253892847 177.70389671656 143.81253892847c15.813010676996 0 31.131628896072 -1.7020686910084 45.733189351751 -4.8524053646653c-46.741787705791 -25.272512171481 -77.779066896153 -69.251740494083 -77.779066896153 -119.21462715281 c0 -67.56099376776 56.707947119938 -124.20195259664 132.34338870236 -138.38460035897C277.0560238233 82.048626953794 242.50987907758 72.737254497275 205.32571656022 72.737254497275zM432.93777710619 148.35193914444l-6.1346178652642 -4.1004382101566v-44.508530171635 L379.64151534473 125.98445441177l-0.113219646852 -0.0207569352562l-4.7854170736112 -0.8953787071879c-10.595471951233 -1.9851178081384 -21.385304296229 -2.9889986768928 -32.098713379599 -2.9889986768928c-1.1557838949475 0 -2.2879803634675 0.0490618469692 -3.4314987966727 0.0698187822254 c-76.57610814835 1.4831773737612 -138.31006409146 52.094246510719 -138.31006409146 114.14616096207c0 48.243835020694 37.332291555333 89.566175630503 89.927535003372 106.27739550586c13.394827719649 4.2542282304639 27.773722869853 6.915833428543 42.79230902477 7.6847835300795 c2.9880551798357 0.1537900203073 5.9883758214137 0.2538007083599 9.0245493511615 0.2538007083599c78.156465718993 0 141.74061939108 -51.23849467993 141.74061939108 -114.2159797443C484.38855862397 202.25864350185 465.63183712882 170.20144399276 432.93777710619 148.35193914444z"/><glyph unicode="&#xE002;" glyph-name="credit-card5" horiz-adv-x="512" d="M450.79867469853 363.25087834942H61.202439146429C27.454050632085 363.25087834942 0 335.79682771734 0 302.04732535803v-220.09465071606c0 -33.747274669382 27.454050632085 -61.203552991392 61.202439146429 -61.203552991392h389.59512170714 c33.746160824419 0 61.202439146429 27.45627832201 61.202439146429 61.203552991392V302.04732535803C512.00111384496 335.79682771734 484.54483552295 363.25087834942 450.79867469853 363.25087834942zM478.13577160957 81.953788486933 c0 -15.07477772049 -12.26343303551 -27.338210756001 -27.337096911038 -27.338210756001H61.202439146429c-15.073663875528 0 -27.339324600963 12.26343303551 -27.339324600963 27.338210756001V229.4480245568h444.27154321914L478.13577160957 81.953788486933 L478.13577160957 81.953788486933zM478.13577160957 277.76104979888l-444.27154321914 -0.032301503908247v24.319690908023c0 15.07477772049 12.265660725435 27.339324600963 27.339324600963 27.339324600963h389.59512170714 c15.073663875528 0 27.337096911038 -12.264546880473 27.337096911038 -27.339324600963V277.76104979888zM75.891826509945 86.02266413441h92.705316216669c3.319257987813 0 6.0125351067834 2.6910494290457 6.0125351067834 6.0103074168587v18.290448126804c0 3.3203718327753 -2.6932771189704 6.011421261821 -6.0125351067834 6.011421261821h-92.705316216669 c-3.319257987813 0 -6.0125351067834 -2.6910494290457 -6.0125351067834 -6.011421261821v-18.290448126804C69.878177558199 88.713713563455 72.57145467717 86.02266413441 75.891826509945 86.02266413441zM347.92395397558 170.62475824996c9.6336450793941 0 18.513217119275 -3.2268088559376 25.625117203901 -8.6523476675608c7.1119000846261 5.4233111216984 15.98813058962 8.6523476675608 25.625117203901 8.6523476675608 c23.362898085361 0 42.302717825218 -18.939819739856 42.302717825218 -42.302717825218s-18.940933584819 -42.300490135293 -42.302717825218 -42.300490135293c-9.6347589243564 0 -18.513217119275 3.2256950109753 -25.625117203901 8.6523476675608 c-7.1119000846261 -5.4255388116231 -15.989244434582 -8.6523476675608 -25.625117203901 -8.6523476675608c-23.364011930324 0 -42.302717825218 18.937592049932 -42.302717825218 42.300490135293S324.56216973518 170.62475824996 347.92395397558 170.62475824996z"/><glyph unicode="&#xE003;" glyph-name="file148" horiz-adv-x="512" d="M418.20778776413 448H32.91171029231v-459.84115730297H418.20778776413V448zM395.05052458195 11.315087350752c-21.004094006994 0 -317.95606800269 0 -338.98256963592 0 c0 21.376875425216 0 392.19457076585 0 413.5062603693c21.047890730993 0 317.97847562892 0 338.98256963592 0C395.05052458195 403.48826901883 395.05052458195 32.670573678201 395.05052458195 11.315087350752zM96.494368253741 373.32251146839l263.38229431494 0l0 -24.299033591546l-262.78034399207 0ZM96.494368253741 296.75565263405l263.38229431494 0l0 -24.277644493779l-262.78034399207 0ZM434.07035007937 395.88597255543L434.07035007937 372.70732027548L455.88722980151 372.70732027548L455.88722980151 -40.776532467584L116.88327106782 -40.776532467584L116.88327106782 -24.716375630115L93.68221116164 -24.716375630115L93.68221116164 -64L479.08727117923 -64L479.08727117923 395.88597255543ZM106.33742734033 116.61972682748c4.5701372228389 0 8.7440668727595 1.2965867360539 12.589011828458 3.1859570387876l33.043100464306 -27.02359723565 c-0.1762054244598 -1.274179109822 -0.74658136490772 -2.3731713236494 -0.74658136490772 -3.6911471574701c0 -15.994971015704 12.962811775144 -28.935375164616 28.935375164616 -28.935375164616s28.935375164616 12.962811775144 28.935375164616 28.935375164616 c0 4.5915263206057 -1.3179758338207 8.7664744989914 -3.2073461365544 12.632808552456c15.884969941474 23.816251099096 36.163871681328 54.267196619759 48.3352868391 72.524319356417c1.8679812049669 -0.3951890444532 3.6249428072395 -1.142788937826 5.6029250864357 -1.142788937826 c6.9422900180232 0 13.072812849373 2.7683603681026 18.059528214432 6.8546965700258c10.875846950184 -6.3495064513434 25.00283676092 -14.58838320542 37.174251918693 -21.684471021672c-0.022407626231882 -0.41759667068508 -0.24139124622528 -0.72519226714092 -0.24139124622528 -1.142788937826 c0 -15.994971015704 12.962811775144 -28.935375164616 28.935375164616 -28.935375164616s28.912967538384 12.962811775144 28.912967538384 28.935375164616c0 15.972563389472 -12.940404148912 28.935375164616 -28.912967538384 28.935375164616 c-7.0746987184843 0 -13.314204095598 -2.8345647183331 -18.367123810888 -7.0522910922524l-36.976657396466 21.575488475907c0.022407626231882 0.48380102091564 0.28518797022396 0.90037916313564 0.28518797022396 1.3841801840513c0 15.972563389472 -12.940404148912 28.891578440617 -28.891578440617 28.891578440617 s-28.869170814385 -12.940404148912 -28.869170814385 -28.891578440617c0 -5.3605153117453 1.845573578735 -10.084450332812 4.3725427006123 -14.390788683194c-15.1811667721 -22.804852333266 -34.99867511727 -52.531624115253 -47.412500049733 -71.183935896365 c-2.5045614956454 0.74658136490772 -4.987733893524 1.6041823325098 -7.7336866353947 1.6041823325098c-5.975706504657 0 -11.227239270638 -2.2631702494201 -15.841173217476 -5.3605153117453c-9.1616635434446 7.5136844869362 -20.498903888312 16.78534910461 -30.627150945123 25.068022582686 c0.72519226714092 2.5483582196441 1.5817747062779 5.0529197152895 1.5817747062779 7.821280083392c0 16.01636011347 -13.027997596909 28.935375164616 -28.935375164616 28.912967538384c-16.01636011347 0 -28.956764262382 -12.919015051145 -28.956764262382 -28.912967538384 C77.358255451713 129.58253860263 90.298659600625 116.61972682748 106.33742734033 116.61972682748z"/><glyph unicode="&#xE004;" glyph-name="folder47" horiz-adv-x="512" d="M506.29704117585 260.04338112016c-6.1182588165428 8.6230368956789 -16.426597913506 13.569556447963 -28.283041892836 13.569556447963h-45.126793816561v49.075851779966c0 18.91283581441 -15.386493914693 34.299329729103 -34.299329729103 34.299329729103 h-158.18850871062c-6.730084698197 0 -17.233095666595 5.3321552595082 -21.202547826055 10.764427481469l-11.839757818922 16.194845685606c-9.2367167951564 12.633277447249 -28.003085201534 22.16292905847 -43.654703664944 22.16292905847H108.88832077405 c-17.229387630949 0 -34.557038206527 -12.251349775671 -40.302639440608 -28.49996197815l-3.769218234555 -10.664310519016c-1.7761490746206 -5.0243883008578 -8.7528181433025 -9.9579297283791 -14.083119384988 -9.9579297283791H34.299329729103c-18.91283581441 0 -34.299329729103 -15.386493914693 -34.299329729103 -34.299329729103 v-309.75075772115c0 -1.6408057735274 0.29849686953436 -3.207450834127 0.82132989567529 -4.6702708966276c0.28181070912561 -6.1293829234819 2.1877410313698 -11.910210496203 5.6603164142137 -16.804817549437c6.1182588165428 -8.6248909135021 16.426597913506 -13.569556447963 28.283041892836 -13.569556447963h349.45640342269 c21.126533095304 0 43.142994745742 15.618246142593 50.123371850071 35.558207831053l75.415882994094 215.41462284135C513.67603211217 240.0552149683 512.4152999924 251.41849020666 506.29704117585 260.04338112016zM34.299329729103 329.17785172927h16.434013984799 c17.233095666595 0 34.558892224351 12.251349775671 40.302639440608 28.49996197815l3.7673642167318 10.66060248337c1.7780030924438 5.026242318681 8.7546721611257 9.9597837462023 14.084973402811 9.9597837462023h54.81218292493c6.730084698197 0 17.233095666595 -5.3321552595082 21.204401843879 -10.764427481469 l11.839757818922 -16.192991667783c9.2367167951564 -12.635131465072 28.003085201534 -22.16292905847 43.654703664944 -22.16292905847h158.18850871062c3.5189258284237 0 6.4890623811817 -2.9719905705812 6.4890623811817 -6.4890623811817v-49.075851779966H128.55759586033 c-21.126533095304 0 -43.142994745742 -15.618246142593 -50.123371850071 -35.558207831053L27.810267347922 93.45431765264V322.68878934809C27.810267347922 326.20586115869 30.782257918503 329.17785172927 34.299329729103 329.17785172927zM483.51116212879 238.05472973707l-75.415882994094 -215.41462284135 c-3.1036258360281 -8.8640592126942 -14.483587234798 -16.936452814884 -23.874187509279 -16.936452814884H34.764688202725c-2.684617807986 0 -4.7778039303729 0.69154864805165 -5.5991338260482 1.8503097875484c-0.82132989567529 1.1587611394967 -0.78424953921139 3.3631883312753 0.10382499809891 5.8976306955826 l75.415882994094 215.41462284135c3.1036258360281 8.8640592126942 14.483587234798 16.936452814884 23.874187509279 16.936452814884h349.45640342269c2.684617807986 0 4.7778039303729 -0.69154864805165 5.6009878438714 -1.8503097875484 C484.43631702256 242.79359929316 484.3992366661 240.58917210138 483.51116212879 238.05472973707z"/><glyph unicode="&#xE005;" glyph-name="groups1" horiz-adv-x="512" d="M148.1186314515 146.11262275234h-12.305815882696c-6.8060804448231 0 -12.325330702659 -5.5135106049056 -12.325330702659 -12.318443119143V-6.4886776377741 c0 -5.5066230213892 -1.4234339267297 -9.2970898166002 -2.3980269943052 -10.963885027577H64.004017757051c-0.97344513698937 1.6667952109771 -2.3980269943052 5.4572620061881 -2.3980269943052 10.963885027577V133.7941796332c0 6.8060804448231 -5.5135106049056 12.318443119143 -12.325330702659 12.318443119143H35.601919196449 c-6.0381148827407 0 -10.958145374647 4.9200304919062 -10.958145374647 10.963885027577V274.07014932066c0 6.043854535671 4.9200304919062 10.963885027577 10.958145374647 10.963885027577h112.51097260213c2.9283709250706 8.9722254607417 9.2592081072598 16.314389489261 17.532343841083 20.585839200036 c-4.869521546119 2.4910093717771 -10.30841666293 4.0521949688355 -16.158270929555 4.0521949688355h-3.4965965651764c10.620653782342 12.349437244967 17.076615398413 28.365364781848 17.076615398413 45.890821039415c0 38.885000672616 -31.636966952155 70.534594861217 -70.51622797184 70.534594861217 c-38.891888256132 0 -70.528855208287 -31.649594188601 -70.528855208287 -70.534594861217c0 -17.525456257567 6.4617012690014 -33.541383794449 17.076615398413 -45.890821039415h-3.4965965651764C15.971158244025 309.67206851711 0 293.6997623425 0 274.07014932066v-116.99364154074 c0 -19.636500605354 15.971158244025 -35.607658849379 35.601919196449 -35.607658849379h1.3614456750818v-127.95178691538c0 -20.297708622932 10.695269270436 -35.613398502309 24.874507869602 -35.613398502309h61.406250840769 c14.186126182682 0 24.874507869602 15.315689879378 24.874507869602 35.613398502309V121.46884893054h1.3614456750818c5.8498542666248 0 11.288749383436 1.5485583606116 16.158270929555 4.0579346217658 C157.37783955876 129.79823326308 151.04700237658 137.14613694453 148.1186314515 146.11262275234zM92.556495224429 401.45371059594c25.299242186449 0 45.878193802968 -20.591578852966 45.878193802968 -45.897708622932 c0 -25.311869422896 -20.578951616519 -45.890821039415 -45.878193802968 -45.890821039415c-25.306129769965 0 -45.890821039415 20.578951616519 -45.890821039415 45.890821039415C46.665674185014 380.8678713959 67.250365454464 401.45371059594 92.556495224429 401.45371059594zM476.39808080355 309.67206851711h-3.48970898166c10.613766198825 12.349437244967 17.076615398413 28.365364781848 17.076615398413 45.890821039415 c0 38.885000672616 -31.636966952155 70.534594861217 -70.52196762477 70.534594861217c-38.891888256132 0 -70.528855208287 -31.649594188601 -70.528855208287 -70.534594861217c0 -17.525456257567 6.4685888525178 -33.541383794449 17.082355051343 -45.890821039415h-3.4965965651764 c-6.1747186224833 0 -11.913223622259 -1.7230438096946 -16.982485090355 -4.5079234115062c7.8920227792476 -4.3265503789068 13.904883189095 -11.501116541859 16.733384153177 -20.186359356083c0.094130308057935 0 0.15611855970584 0.056248598717546 0.25024886776378 0.056248598717546h113.87815793014 c6.043854535671 0 10.963885027577 -4.9200304919062 10.963885027577 -10.963885027577v-116.99364154074c0 -6.043854535671 -4.9200304919062 -10.963885027577 -10.963885027577 -10.963885027577h-13.674149141294c-6.8060804448231 0 -12.325330702659 -5.5135106049056 -12.325330702659 -12.318443119143V-6.4886776377741 c0 -5.5066230213892 -1.4176942737994 -9.2970898166002 -2.3911394107888 -10.963885027577h-57.085440114793c-0.98033272050581 1.6667952109771 -2.3980269943052 5.4572620061881 -2.3980269943052 10.963885027577V133.7941796332c0 6.8060804448231 -5.5066230213892 12.318443119143 -12.318443119143 12.318443119143 h-13.685628447155c-0.094130308057935 0 -0.15611855970584 0.049361015201112 -0.25024886776378 0.056248598717546c-2.8285009640823 -8.6909824671539 -8.8413613739294 -15.852921393659 -16.733384153177 -20.186359356083c5.0704093986817 -2.7779920182951 10.802026814941 -4.5136630644366 16.982485090355 -4.5136630644366h1.3614456750818 v-127.95178691538c0 -20.297708622932 10.689529617506 -35.613398502309 24.874507869602 -35.613398502309h61.406250840769c14.179238599166 0 24.874507869602 15.315689879378 24.874507869602 35.613398502309V121.46884893054h1.3614456750818 c19.636500605354 0 35.601919196449 15.978045827541 35.601919196449 35.607658849379V274.07014932066C512 293.70664992601 496.03458140891 309.67206851711 476.39808080355 309.67206851711zM419.46187166495 309.67206851711 c-25.306129769965 0 -45.885081386485 20.578951616519 -45.885081386485 45.890821039415c0 25.306129769965 20.578951616519 45.897708622932 45.885081386485 45.897708622932c25.299242186449 0 45.890821039415 -20.591578852966 45.890821039415 -45.897708622932 C465.34695305143 330.25102013363 444.7611138514 309.67206851711 419.46187166495 309.67206851711zM347.72883727187 157.07650777992V274.07014932066c0 3.8214609210349 -0.76796556208242 7.4489215730236 -1.8860499529169 10.90763642886 c-2.8216133805659 8.6909824671539 -8.8413613739294 15.85866104659 -16.733384153177 20.186359356083c-5.076149051612 2.7779920182951 -10.802026814941 4.5079234115062 -16.982485090355 4.5079234115062h-3.4965965651764c10.613766198825 12.349437244967 17.076615398413 28.365364781848 17.076615398413 45.890821039415 c0 38.885000672616 -31.636966952155 70.534594861217 -70.528855208287 70.534594861217c-38.885000672616 0 -70.52196762477 -31.649594188601 -70.52196762477 -70.534594861217c0 -17.525456257567 6.4617012690014 -33.541383794449 17.076615398413 -45.890821039415h-3.4965965651764 c-5.8498542666248 0 -11.294489036366 -1.5611855970584 -16.165158513071 -4.0521949688355c-8.2731357338236 -4.2703017801892 -14.603972916013 -11.613613739294 -17.532343841083 -20.585839200036c-1.1364512802116 -3.4713420922829 -1.9101564952244 -7.1183175642348 -1.9101564952244 -10.963885027577v-116.99364154074 c0 -3.8524550468589 0.77370521501278 -7.4925429352944 1.9101564952244 -10.963885027577c2.9283709250706 -8.9653378772252 9.2534684543294 -16.314389489261 17.532343841083 -20.585839200036c4.869521546119 -2.5105241917403 10.31415631586 -4.0579346217658 16.165158513071 -4.0579346217658h1.3614456750818v-127.95178691538 c0 -20.297708622932 10.689529617506 -35.613398502309 24.874507869602 -35.613398502309h61.413138424286c14.179238599166 0 24.874507869602 15.315689879378 24.874507869602 35.613398502309V121.46884893054h1.3614456750818 c6.1816062059997 0 11.913223622259 1.7299313932111 16.982485090355 4.5136630644366c7.8920227792476 4.3334379624232 13.910622842025 11.501116541859 16.733384153177 20.186359356083C346.96087170979 149.6275862069 347.72883727187 153.24241962244 347.72883727187 157.07650777992zM255.17922963096 401.45371059594c25.306129769965 0 45.890821039415 -20.591578852966 45.890821039415 -45.897708622932c0 -25.311869422896 -20.578951616519 -45.890821039415 -45.890821039415 -45.890821039415 c-25.299242186449 0 -45.885081386485 20.578951616519 -45.885081386485 45.890821039415C209.2998878974 380.8678713959 229.87883951392 401.45371059594 255.17922963096 401.45371059594zM323.07817586655 157.07650777992 c0 -5.9566118111295 -4.7822788215775 -10.764145105601 -10.702156853953 -10.90763642886c-0.094130308057935 -0.0057396529303619 -0.1618582126362 -0.056248598717546 -0.25598852069414 -0.056248598717546h-13.674149141294c-6.8060804448231 0 -12.331070355589 -5.5135106049056 -12.331070355589 -12.318443119143V-6.4886776377741 c0 -5.5066230213892 -1.4176942737994 -9.2970898166002 -2.3911394107888 -10.963885027577h-57.085440114793c-0.97344513698937 1.6667952109771 -2.3980269943052 5.4572620061881 -2.3980269943052 10.963885027577V133.7941796332c0 6.8060804448231 -5.5135106049056 12.318443119143 -12.318443119143 12.318443119143 h-12.312703466212h-1.3671853280122c-6.043854535671 0 -10.958145374647 4.9200304919062 -10.958145374647 10.963885027577V274.07014932066c0 6.043854535671 4.9142908389758 10.963885027577 10.958145374647 10.963885027577h1.3671853280122h112.51097260213 c0.094130308057935 0 0.1618582126362 -0.056248598717546 0.25598852069414 -0.056248598717546c5.9187301017892 -0.15611855970584 10.702156853953 -4.9510246177301 10.702156853953 -10.90763642886C323.07817586655 274.07014932066 323.07817586655 157.07650777992 323.07817586655 157.07650777992z"/><glyph unicode="&#xE006;" glyph-name="house204" horiz-adv-x="512" d="M17.685988155766 148.39587012411h41.704321256376v-166.8162336649c0 -9.8302216892408 8.0429086548334 -17.873130344074 17.873130344074 -17.873130344074h122.13340780471c9.8302216892408 0 17.873130344074 8.0429086548334 17.873130344074 17.873130344074V103.71304426392h74.471025980106v-122.13340780471 c0 -9.8302216892408 8.0429086548334 -17.873130344074 17.873130344074 -17.873130344074h116.17534723648c9.8302216892408 0 17.873130344074 8.0429086548334 17.873130344074 17.873130344074V148.39587012411h50.640886428413c7.1492521376297 0 13.702382810254 4.4682825860185 16.383352361865 11.021413258643 c2.6809695516111 6.5531306726244 1.1911915694021 14.298504275259 -3.8721611210132 19.362908326283L273.86787354103 415.00304730301c-6.8517170854313 6.8517170854313 -18.170665396273 7.1492521376297 -25.022382481704 0.29753505219841L5.4733833277206 179.07772676123 c-5.3619391032223 -5.0644040510238 -6.8517170854313 -12.80872629305 -4.1707475338201 -19.660443378482C3.9836053455116 152.56661765793 10.536736018136 148.39587012411 17.685988155766 148.39587012411zM260.76056083517 377.17193852826l190.64637321659 -193.029807716h-25.618503946709 c-9.8302216892408 0 -17.873130344074 -8.0429086548334 -17.873130344074 -17.873130344074v-166.8162336649h-80.429086548334V121.586174608c0 9.8302216892408 -8.0429086548334 17.873130344074 -17.873130344074 17.873130344074H199.39684756093c-9.8302216892408 0 -17.873130344074 -8.0429086548334 -17.873130344074 -17.873130344074v-122.13340780471H95.13657010029V166.26900046818 c0 9.8302216892408 -8.0429086548334 17.873130344074 -17.873130344074 17.873130344074H61.773743911554L260.76056083517 377.17193852826z"/><glyph unicode="&#xE007;" glyph-name="male61" horiz-adv-x="512" d="M505.6621976307 140.37142654465c-1.7615095410371 9.8245016670214 -10.78697595233 19.1586862453 -20.556997942825 21.210754061148l-39.316166560261 8.2990707242676c5.9019649570831 7.1913173015535 10.950414981911 16.144144144144 13.783358161311 25.351209477194 c6.8462793502164 2.4879052280627 12.348726679435 8.2627509399163 13.964957083067 14.727672554444c2.3244661984819 9.3160246861034 -0.12711924522948 17.760374547776 -5.3934879761651 20.030361069731v12.348726679435c0 30.653897992481 -23.335461445698 52.881606015464 -55.514790380932 52.881606015464 s-55.514790380932 -22.264027807335 -55.514790380932 -52.881606015464l0.87167482443073 -10.78697595233c-6.1380435553664 -3.7954174647088 -8.6077888912535 -12.276087110733 -6.2651628005959 -21.573951904661c1.6343902958076 -6.5012413988792 7.1549975172022 -12.312406895084 12.929843229056 -13.692558700433 c3.7590976803575 -10.151379726183 8.8257075973611 -19.195006029652 14.74583244662 -26.386323331205L340.13478044974 161.61850039015c-5.0302901326523 -1.0714336383628 -9.8608214513726 -4.1222955238703 -13.61991913173 -8.1174718025112l-25.296729800667 5.3571681918139 c10.841455628857 11.949209051571 19.28580549053 27.348797616514 25.133290771086 42.748386181457c8.4625097538483 3.0508618855076 17.015818968575 10.605377030574 19.431084627935 20.466198481947c3.2869404837909 13.020642689934 -0.16343902958076 24.679293466695 -8.2809108320919 29.727743491523V270.52337376747 c0 44.963893026885 -34.304036319784 77.560899482159 -81.519755976449 77.560899482159c-47.23387954884 0 -81.537915868625 -32.633326239625 -81.537915868625 -77.560899482159v-18.722848833085c-8.0993119103355 -4.9758104561254 -11.549691423707 -16.670781017238 -8.2809108320919 -29.727743491523 c2.4697453358871 -9.8608214513726 11.041214442789 -17.45165638079 19.540043980989 -20.502518266298c5.7385259275023 -15.435908349294 14.128396112648 -30.78101723771 24.933531957154 -42.748386181457l-25.187770447613 -5.3208484074626c-3.7590976803575 4.0496559551678 -8.5533092147265 7.1005178406753 -13.61991913173 8.1174718025112 l-39.316166560261 8.2990707242676c5.9201248492587 7.1913173015535 10.932255089735 16.16230403632 13.783358161311 25.351209477194c6.8462793502164 2.5060651202383 12.33056678726 8.2627509399163 13.946797190892 14.74583244662c2.3244661984819 9.2978647939278 -0.12711924522948 17.7422146556 -5.3934879761651 20.012201177556v12.348726679435 c0 30.653897992481 -23.335461445698 52.881606015464 -55.496630488756 52.881606015464s-55.496630488756 -22.245867915159 -55.496630488756 -52.881606015464l0.85351493225509 -10.78697595233c-6.1198836631908 -3.7954174647088 -8.5896289990778 -12.276087110733 -6.2470029084202 -21.573951904661 c1.6343902958076 -6.5194012910548 7.1368376250266 -12.33056678726 12.929843229056 -13.692558700433c3.7590976803575 -10.169539618359 8.8257075973611 -19.213165921827 14.74583244662 -26.386323331205L26.876640419948 161.69113995886c-9.7700219904944 -2.0520678158473 -18.795488401788 -11.386252394126 -20.538838050649 -21.210754061148 l-6.0472440944882 -34.013478044974c-0.94431439313329 -5.3208484074626 0.34503795133716 -10.423778108817 3.6138185429524 -14.32815492658c3.2687805916152 -3.9043768177626 8.0629921259843 -6.0654039866638 13.474639994325 -6.0654039866638h94.812797049018l-3.9951762786408 -22.40930694474 c-1.2893523444705 -7.3002766546074 0.43583741221537 -14.219195573526 4.9031708874229 -19.540043980989c4.4310136908562 -5.2845286231113 10.968574874087 -8.1901113712137 18.359650989572 -8.1901113712137h249.08108108108c7.3910761154856 0 13.946797190892 2.9055827481024 18.395970773924 8.226431155565 c4.4491735830319 5.2845286231113 6.156203447542 12.239767326382 4.8850109952472 19.503724196638l-4.0133361708165 22.40930694474h94.812797049018c5.4116478683408 0 10.20585940271 2.1610271689012 13.474639994325 6.0654039866638c3.2869404837909 3.9406966021139 4.5399730439101 9.0073065191175 3.5956586507768 14.32815492658 L505.6621976307 140.37142654465zM373.91217989643 204.31240689508l-0.85351493225509 1.5254309427538l-1.5980705114563 -0.3631978435128c-2.4152656593601 0 -7.6271547137689 2.978222316805 -8.6985883521317 7.2094771937292c-1.162233099241 4.6489323969639 -0.072639568702561 8.8257075973611 3.0508618855076 9.0436263034688 l2.6513442576435 -1.4164715896999V242.24842165c0 24.461374760587 18.141732283465 41.495353621338 44.128537986806 41.495353621338c26.004965595517 0 44.146697878981 -17.033978860751 44.146697878981 -41.495353621338v-18.940767539193l1.3801518053487 -2.7421437185217l2.6513442576435 1.4527913740512 c1.5617507271051 -0.41767752003972 2.9419025324537 -4.2130949847485 1.6707100801589 -9.3523444704547c-1.0714336383628 -4.1586153082216 -6.3196424771228 -7.1913173015535 -8.9709867347663 -7.1913173015535c-0.01815989217564 0 -1.5980705114563 0.29055827481024 -1.5980705114563 0.29055827481024l-0.47215719656665 -1.4891111584025 c-4.2675746612754 -13.020642689934 -11.49521174718 -25.11513087891 -19.28580549053 -32.306448180464c-1.1259133148897 -1.0714336383628 -2.3244661984819 -2.0520678158473 -3.5411789742498 -2.9419025324537c-1.4346314818756 -1.0714336383628 -2.9419025324537 -1.9067886784422 -4.4854933673831 -2.723983826346 c-3.8498971412357 -1.9431084627935 -7.6089948215932 -2.9055827481024 -11.477051855005 -2.9055827481024c-3.9043768177626 0 -7.8269135277009 0.99879406966021 -11.604171100234 2.9055827481024c-1.5617507271051 0.78087536355253 -3.0690217776832 1.6707100801589 -4.5218131517344 2.6876640419948 c-1.2167127757679 0.88983471660637 -2.4334255515358 1.8886287862666 -3.5411789742498 2.9419025324537C381.84805277719 182.22997800951 375.92792792793 197.97460452579 373.91217989643 204.31240689508zM301.70844860609 146.92714762006 c-12.875363552529 -10.20585940271 -28.601830176633 -15.817266084983 -45.363410654749 -15.817266084983c-16.561821664184 0 -32.578846563099 5.7748457118536 -45.436050223452 15.926225438036l9.8971412357239 2.0883876001986c10.151379726183 -8.0085124494573 21.900829963822 -13.056962474285 35.193871036391 -13.056962474285 c13.220401503866 0 24.933531957154 5.0302901326523 35.084911683337 13.093282258637L301.70844860609 146.92714762006zM194.56508476981 211.92140171668c-4.5218131517344 -0.96247428530893 -14.909271476201 4.7215719656665 -16.961339292048 12.948003121231 c-2.1065474923743 8.3717102929701 -0.10895935305384 16.253103497198 4.4491735830319 17.524295949493c1.361991913173 0.38135773568844 2.7603036106973 0.072639568702561 4.1586153082216 -0.67191601049869V270.50521387529c0 40.605518904732 31.253174434277 65.829609136696 69.788465630985 65.829609136696 c38.553451088884 0 69.77030573881 -25.224090231964 69.77030573881 -65.829609136696v-28.765269206214c1.3983116975243 0.74455557920125 2.8147832872242 1.0895935305384 4.1586153082216 0.67191601049869c4.5581329360857 -1.2711924522948 6.5557210754061 -9.1525856565227 4.4673334752075 -17.524295949493 c-2.0339079236717 -8.1537915868625 -12.403206355962 -13.801518053487 -16.87053983117 -12.948003121231c-5.4116478683408 -16.416542526779 -15.599347378875 -36.919060793077 -30.000141874158 -50.284741434348c-1.815989217564 -1.6707100801589 -3.7046180038306 -3.2687805916152 -5.6658863587997 -4.6852521813152 c-2.3063063063063 -1.6888699723345 -4.7034120734908 -3.1235014542101 -7.1913173015535 -4.3946939065049c-5.7385259275023 -2.9419025324537 -11.967368943747 -4.7215719656665 -18.668369156558 -4.7215719656665c-6.8099595658651 0 -13.075122366461 1.7796694332127 -18.86812797049 4.6852521813152 c-2.4879052280627 1.2711924522948 -4.9213307795985 2.6695041498191 -7.2276370859048 4.3946939065049c-1.9612683549691 1.4164715896999 -3.8317372490601 3.0145421011563 -5.6658863587997 4.6852521813152C209.96467333475 174.83890189402 199.97673263815 195.14166134639 194.56508476981 211.92140171668zM60.672199758814 204.31240689508 l-0.83535504007945 1.5254309427538l-1.5980705114563 -0.3631978435128c-2.4152656593601 0 -7.6271547137689 2.978222316805 -8.680428459956 7.2094771937292c-1.1803929914166 4.6489323969639 -0.072639568702561 8.8257075973611 3.0508618855076 9.0436263034688l2.6695041498191 -1.4164715896999V242.24842165 c0 24.461374760587 18.141732283465 41.495353621338 44.11037809463 41.495353621338c25.986805703341 0 44.128537986806 -17.033978860751 44.128537986806 -41.495353621338v-18.940767539193l1.3983116975243 -2.7421437185217l2.6695041498191 1.4527913740512 c1.5617507271051 -0.41767752003972 2.9419025324537 -4.2130949847485 1.6525501879833 -9.3523444704547c-1.0532737461871 -4.1586153082216 -6.3014825849472 -7.1913173015535 -8.9709867347663 -7.1913173015535c-0.01815989217564 0 -1.5980705114563 0.29055827481024 -1.5980705114563 0.29055827481024L138.17861956445 204.29424700291 c-4.2675746612754 -13.020642689934 -11.477051855005 -25.11513087891 -19.267645598354 -32.306448180464c-1.1440732070653 -1.0714336383628 -2.3244661984819 -2.0520678158473 -3.5593388664255 -2.9419025324537c-1.4346314818756 -1.0714336383628 -2.9419025324537 -1.9067886784422 -4.4854933673831 -2.723983826346 c-3.8498971412357 -1.9431084627935 -7.6089948215932 -2.9055827481024 -11.477051855005 -2.9055827481024c-3.9043768177626 0 -7.8087536355253 0.99879406966021 -11.586011208058 2.9055827481024c-1.5617507271051 0.78087536355253 -3.0690217776832 1.6707100801589 -4.5218131517344 2.6876640419948 c-1.2348726679435 0.88983471660637 -2.4334255515358 1.8886287862666 -3.5593388664255 2.9419025324537C68.608072639569 182.22997800951 62.68794779031 197.97460452579 60.672199758814 204.31240689508zM47.161239980138 97.169043058807H17.397176704263 c-2.0520678158473 0 -3.7772575725332 0.70823579484997 -4.9031708874229 2.0520678158473c-0.41767752003972 0.49031708874229 -0.70823579484997 1.1077534227141 -0.88983471660637 1.8523090019153h35.557068879904V97.169043058807zM114.18940200043 97.169043058807H58.347733560332v17.796694332127 c0 3.0871816698588 -2.524225012414 5.6114066822728 -5.6114066822728 5.6114066822728s-5.5932467900972 -2.524225012414 -5.5932467900972 -5.6114066822728v-2.6876640419948H12.711924522948l4.6489323969639 26.113924948571c0.96247428530893 5.4116478683408 6.4830815067036 11.095694119316 11.822089806342 12.257927218557l30.018301766333 7.1913173015535 c10.732496275803 -10.569057246223 25.442008938072 -16.634461232886 40.387600198624 -16.634461232886c15.145350074484 0 29.473505001064 5.8838050649074 38.680570334114 16.071504575442l31.253174434277 -6.5738809675818c0.29055827481024 -0.072639568702561 0.58111654962049 -0.30871816698588 0.87167482443073 -0.38135773568844 l-23.971057671845 -5.0666099170036c-13.819677945662 -2.8874228559268 -26.567922252962 -16.107824359793 -29.055827481024 -29.981981981982L114.18940200043 97.169043058807zM179.4378945875 47.301979144499H131.45945945946c-3.9406966021139 0 -7.3365964389586 1.4527913740512 -9.5521032843868 4.140455416046 c-1.6707100801589 1.9612683549691 -2.269986521955 4.5762928282613 -2.3244661984819 7.318436546783h59.85500461091V47.301979144499zM326.80541959282 82.877207916578c-3.177981130737 0 -5.7385259275023 -2.6150244732922 -5.7385259275023 -5.7748457118536v-29.800383060226h-130.15194722281v29.800383060226 c0 3.2143009150883 -2.5787046889409 5.7748457118536 -5.7566858196779 5.7748457118536c-3.1598212385614 0 -5.7385259275023 -2.6150244732922 -5.7385259275023 -5.7748457118536v-6.8462793502164H121.05384124282l2.7966233950486 15.708306731929l1.9975881393204 11.20465347237l2.8511030715755 15.998865006739 c1.6525501879833 9.3341845782791 10.877775413208 18.831808186139 20.121160530609 20.811236433284l31.707171738668 6.6828403206356l10.932255089735 2.3063063063063l5.4661275448677 1.1259133148897c15.780946300631 -15.526707810172 37.15513939136 -24.497694544939 59.401007306519 -24.497694544939 c22.481946513443 0 43.40214229978 8.6985883521317 59.346527629992 24.334255515358l4.8668511030716 -1.0169539618359l10.950414981911 -2.3063063063063l31.689011846492 -6.6828403206356c9.2797049017521 -1.9249485706179 18.504930126977 -11.477051855005 20.103000638434 -20.811236433284l2.8511030715755 -16.017024898915l1.9612683549691 -11.186493580194 l2.7966233950486 -15.708306731929h-58.384053344683v6.8462793502164C332.54394552032 80.298503227637 329.98340072356 82.877207916578 326.80541959282 82.877207916578zM390.09264382493 51.442434560545c-2.1973469532525 -2.6513442576435 -5.6114066822728 -4.140455416046 -9.5339433922111 -4.140455416046 h-48.014754912393v11.458891962829h59.891324395261C392.36263034688 56.018727388806 391.76335390509 53.403702915514 390.09264382493 51.442434560545zM459.22735333759 120.57714407321c-3.0871816698588 0 -5.6295665744485 -2.524225012414 -5.6295665744485 -5.6114066822728v-17.796694332127h-55.823508547918 l-3.232460807264 18.014613038235c-2.4697453358871 13.91047740654 -15.236149535362 27.094559126055 -29.092147265376 30.000141874158l-23.934737887494 5.0666099170036c0.32687805916152 0.072639568702561 0.58111654962049 0.29055827481024 0.88983471660637 0.3631978435128l30.018301766333 7.1731574093779 c10.732496275803 -10.569057246223 25.423849045896 -16.634461232886 40.405760090799 -16.634461232886c15.145350074484 0 29.455345108888 5.8838050649074 38.680570334114 16.107824359793l31.253174434277 -6.5920408597574c5.3753280839895 -1.1259133148897 10.895935305384 -6.8462793502164 11.822089806342 -12.239767326382l4.6489323969639 -26.113924948571 h-34.431155565014v2.6695041498191C464.83876001986 118.08923884514 462.31453500745 120.57714407321 459.22735333759 120.57714407321zM499.52415407534 99.23927076683c-1.1259133148897 -1.3438320209974 -2.8511030715755 -2.0339079236717 -4.9213307795985 -2.0339079236717h-29.800383060226v3.9043768177626 h35.557068879904C500.23238987019 100.32886429737 499.94183159537 99.729587855572 499.52415407534 99.23927076683z"/><glyph unicode="&#xE008;" glyph-name="office24" horiz-adv-x="512" d="M376.4733535804 233.40624161277V421.6449848147H161.88992725181v-103.90951376767H0v-355.13042004258h161.88992725181v-0.24900261328436h350.11007274819V233.41347405382H376.4733535804V233.40624161277zM106.7208669243 -22.342172759285 v85.395497886166H70.23320182829v-85.395497886166H15.063108294908V302.67959519317h146.82681895691v-325.02176795246H106.7208669243zM496.93895811682 -22.588075754977H306.19262428236V129.25289126114h-65.255215974331v-151.84096701611h-63.993671614081V317.73547104703 v88.845372266898h184.46444217982v-188.23770999606h135.53077924306V-22.588075754977zM196.45789585204 370.19649880435h31.377428891423v-69.781690865613h-31.377428891423V370.19649880435zM256.58014509278 370.19649880435h31.366063626916v-69.781690865613h-31.366063626916 V370.19649880435zM314.41281013833 370.19649880435h31.379495303151v-69.781690865613h-31.379495303151V370.19649880435zM196.45789585204 263.03341977015h31.377428891423v-77.312728410134h-31.377428891423V263.03341977015zM256.58014509278 263.03341977015h31.366063626916 v-77.312728410134h-31.366063626916V263.03341977015zM314.41281013833 263.03341977015h31.379495303151v-77.312728410134h-31.379495303151V263.03341977015zM401.62881675731 112.806320314h-31.36709683278v71.665225156141h31.36709683278V112.806320314zM401.62881675731 -1.8846966471259h-31.36709683278v73.543593417349h31.36709683278V-1.8846966471259zM467.50292304432 112.806320314h-31.366063626916v71.665225156141h31.366063626916V112.806320314zM467.50292304432 -1.8846966471259h-31.366063626916 v73.543593417349h31.366063626916V-1.8846966471259zM39.849716978276 277.64501710238h31.36709683278v-71.66005912682H39.849716978276V277.64501710238zM39.849716978276 164.84166725524h31.36709683278v-73.542560211484H39.849716978276V164.84166725524zM105.72692288289 277.64501710238h31.366063626916v-71.66005912682h-31.366063626916V277.64501710238zM105.72692288289 164.84166725524h31.366063626916v-73.542560211484h-31.366063626916V164.84166725524z"/><glyph unicode="&#xE009;" glyph-name="price-tag5" horiz-adv-x="512" d="M509.23681424258 404.57540227181C508.53493327059 427.98928146609 496.15790230448 443.17299975164 474.78525025162 445.21422689306c-0.70188097198803 0 -0.70188097198803 0 -1.4037619439761 0L334.17481667386 447.95817157497h-1.4037619439761 c-24.115760166268 0 -40.639661189757 -8.9320418807106 -50.272747473955 -17.225781995477l-0.70188097198803 -0.70188097198803L10.334967256186 157.86800517627c-13.780792910082 -13.780792910082 -13.780792910082 -37.194672104362 0 -50.974628445943L170.8515483053 -53.623204318785 c6.8899781707907 -6.8899781707907 15.822020051501 -10.334967256186 25.519522110244 -10.334967256186l0 0c9.633086284198 0 18.628707370953 3.4449890853953 25.519522110244 10.334967256186L355.54663215822 79.332627478661 c1.4037619439761 1.4037619439761 2.7431081134073 2.7431081134073 4.1468700573834 4.8487510293714l130.21188711554 130.21188711554c8.2937401147667 9.6339228526986 22.711998222292 30.303857365071 22.074533024849 58.566487588722L509.23681424258 404.57540227181zM471.34026116623 232.32009202254 L340.4264930787 101.40632393501c-0.70188097198803 -0.70188097198803 -1.4037619439761 -1.4037619439761 -1.4037619439761 -2.0412271414193c-0.70188097198803 -0.70188097198803 -0.70188097198803 -1.4037619439761 -1.4037619439761 -2.0412271414193L203.96292955832 -35.759120557364 c-4.1468700573834 -4.1468700573834 -11.036848228174 -4.1468700573834 -15.183718285557 0L28.262630223651 124.82020312929c-4.1468700573834 4.1468700573834 -4.1468700573834 11.036848228174 0 15.183718285557L299.7232526829 411.4653804426 c6.1880971988027 4.8487510293714 17.225781995477 11.036848228174 33.047802046979 11.036848228174l139.84580996824 -2.7431081134073c5.4870527953152 -0.70188097198803 10.334967256186 -3.4449890853953 11.036848228174 -15.822020051501l2.7431081134073 -131.61564905951 C486.46040024574 252.99086310341 476.82731396154 238.50902578984 471.34026116623 232.32009202254zM394.14506620655 379.05588016156c-26.858868279675 0 -48.231520332536 -21.372652052861 -48.231520332536 -48.231520332536 s21.372652052861 -48.231520332536 48.231520332536 -48.231520332536s48.231520332536 21.372652052861 48.231520332536 48.231520332536S421.00393448623 379.05588016156 394.14506620655 379.05588016156zM394.14506620655 308.11236160673 c-12.377030966106 0 -22.711998222292 10.334967256186 -22.711998222292 22.711998222292s10.334967256186 22.711998222292 22.711998222292 22.711998222292c12.377030966106 0 22.711998222292 -10.334967256186 22.711998222292 -22.711998222292 S406.52126060416 308.11236160673 394.14506620655 308.11236160673zM303.1690783368 182.68564631452c4.8487510293714 -4.8487510293714 4.8487510293714 -13.078911938094 0 -17.927662967465L196.37023384704 57.9599754258 c-2.7431081134073 -2.7431081134073 -5.4862162268146 -3.4449890853953 -8.9320418807106 -3.4449890853953s-6.1880971988027 1.4037619439761 -8.9320418807106 3.4449890853953c-4.8487510293714 4.8487510293714 -4.8487510293714 13.078911938094 0 17.927662967465l106.79800792126 106.79800792126 C290.0901663987 187.53439734389 298.38390651347 187.53439734389 303.1690783368 182.68564631452zM289.38828542672 257.07415395475L143.29079905363 110.97583101316c-2.7431081134073 -2.7431081134073 -5.4862162268146 -3.4449890853953 -8.9320418807106 -3.4449890853953 s-6.1880971988027 1.4037619439761 -8.9320418807106 3.4449890853953c-4.8487510293714 4.8487510293714 -4.8487510293714 13.078911938094 0 17.927662967465L271.52503823379 275.00098035371c4.8487510293714 4.8487510293714 13.078911938094 4.8487510293714 17.927662967465 0 C294.23703645609 270.21664509889 294.23703645609 262.62478595611 289.38828542672 257.07415395475z"/><glyph unicode="&#xE00A;" glyph-name="printer22" horiz-adv-x="512" d="M106.65129253502 61.55582682531H41.608047887283C18.666078370813 61.55582682531 0 80.225670289589 0 103.17265993068l0.24724113756808 157.74235583075c0 22.934439329539 18.672353526589 41.605537824972 41.6243632923 41.605537824972h34.031424803534 c5.5447276435319 0 10.040249241343 -4.4955215978115 10.040249241343 -10.040249241343s-4.4955215978115 -10.040249241343 -10.040249241343 -10.040249241343H41.871604429868c-11.878869883664 0 -21.543864809613 -9.6637398947931 -21.543864809613 -21.541354747302L20.080498482687 103.15759955682c0 -11.860044416337 9.6574647390173 -21.52127424882 21.527549404596 -21.52127424882 h65.043244647733c5.5447276435319 0 10.040249241343 -4.4955215978115 10.040249241343 -10.040249241343S112.19602017855 61.55582682531 106.65129253502 61.55582682531zM470.14345594399 61.55582682531h-67.722736164017c-5.5447276435319 0 -10.040249241343 4.4955215978115 -10.040249241343 10.040249241343s4.4955215978115 10.040249241343 10.040249241343 10.040249241343h67.722736164017c11.870084665578 0 21.527549404596 9.6612298324828 21.527549404596 21.537589653837l0.24724113756808 157.74235583075 c0 11.862554478647 -9.6574647390173 21.525039342285 -21.527549404596 21.525039342285h-36.935566896592c-5.5447276435319 0 -10.040249241343 4.4955215978115 -10.040249241343 10.040249241343s4.4955215978115 10.040249241343 10.040249241343 10.040249241343h36.935566896592c22.943224547625 0 41.608047887283 -18.671098495433 41.608047887283 -41.621853229989 l-0.24724113756808 -157.74235583075C511.75150383128 80.225670289589 493.08668049162 61.55582682531 470.14345594399 61.55582682531zM451.69324293187 232.13464131112H60.058260899406c-5.5447276435319 0 -10.040249241343 4.4955215978115 -10.040249241343 10.040249241343s4.4955215978115 10.040249241343 10.040249241343 10.040249241343h391.63498203246c5.5447276435319 0 10.040249241343 -4.4955215978115 10.040249241343 -10.040249241343S457.23922560656 232.13464131112 451.69324293187 232.13464131112zM80.374705239265 234.4614690728c-5.5447276435319 0 -10.040249241343 4.4955215978115 -10.040249241343 10.040249241343V342.6275842121c0 5.5447276435319 4.4955215978115 10.040249241343 10.040249241343 10.040249241343h28.992474715534c5.5447276435319 0 10.040249241343 -4.4955215978115 10.040249241343 -10.040249241343s-4.4955215978115 -10.040249241343 -10.040249241343 -10.040249241343H90.414954480608v-88.086871687772 C90.414954480608 238.95573563945 85.919432882797 234.4614690728 80.374705239265 234.4614690728zM431.54748282911 234.3409860819c-5.5447276435319 0 -10.040249241343 4.4955215978115 -10.040249241343 10.040249241343V332.46685197986h-18.300864304659c-5.5447276435319 0 -10.040249241343 4.4955215978115 -10.040249241343 10.040249241343s4.4955215978115 10.040249241343 10.040249241343 10.040249241343h28.341113546002c5.5447276435319 0 10.040249241343 -4.4955215978115 10.040249241343 -10.040249241343 v-98.127120929115C441.58773207046 238.83525264856 437.09221047265 234.3409860819 431.54748282911 234.3409860819zM110.41638600052 233.68711485006c-5.5447276435319 0 -10.040249241343 4.4955215978115 -10.040249241343 10.040249241343V392.72717289525c0 5.5447276435319 4.4955215978115 10.040249241343 10.040249241343 10.040249241343h291.04925507037c5.5447276435319 0 10.040249241343 -4.4955215978115 10.040249241343 -10.040249241343v-140.42920104521 c0 -5.5447276435319 -4.4955215978115 -10.040249241343 -10.040249241343 -10.040249241343s-10.040249241343 4.4955215978115 -10.040249241343 10.040249241343V382.68692365391H120.45663524186v-138.9595595625C120.45663524186 238.18138141671 115.96111364405 233.68711485006 110.41638600052 233.68711485006zM401.58361399948 -18.766167105437H110.5205535864c-5.5447276435319 0 -10.040249241343 4.4955215978115 -10.040249241343 10.040249241343V162.11519813314c0 5.5447276435319 4.4955215978115 10.040249241343 10.040249241343 10.040249241343h291.06306041308c5.5447276435319 0 10.040249241343 -4.4955215978115 10.040249241343 -10.040249241343v-170.84111599723 C411.62386324082 -14.271900538781 407.12834164301 -18.766167105437 401.58361399948 -18.766167105437zM120.56080282774 1.3143313772497h270.98256193039V152.0749488918H120.56080282774V1.3143313772497zM60.05198574363 191.76154408052c-2.6355654258527 0 -5.2209296054986 1.0793267934444 -7.0909260266988 2.9493232146446c-1.8699964212002 1.8574461096485 -2.9493232146446 4.4553606008462 -2.9493232146446 7.0909260266988c0 2.6481157374043 1.0793267934444 5.2334799170503 2.9493232146446 7.1034763382505 c1.8699964212002 1.8699964212002 4.4553606008462 2.936772903093 7.0909260266988 2.936772903093c2.6481157374043 0 5.2334799170503 -1.0667764818927 7.1034763382505 -2.936772903093c1.8699964212002 -1.8699964212002 2.936772903093 -4.4553606008462 2.936772903093 -7.1034763382505c0 -2.6355654258527 -1.0667764818927 -5.2334799170503 -2.936772903093 -7.0909260266988 C65.285465660681 192.84087087396 62.700101481035 191.76154408052 60.05198574363 191.76154408052zM431.66671078886 192.07530186931c-2.6481157374043 0 -5.2334799170503 1.0793267934444 -7.1034763382505 2.9493232146446c-1.8699964212002 1.8574461096485 -2.936772903093 4.4553606008462 -2.936772903093 7.0909260266988c0 2.6481157374043 1.0667764818927 5.2334799170503 2.936772903093 7.1034763382505 c1.8699964212002 1.8699964212002 4.4553606008462 2.936772903093 7.1034763382505 2.936772903093c2.6481157374043 0 5.2334799170503 -1.0667764818927 7.0909260266988 -2.936772903093c1.8699964212002 -1.8699964212002 2.9493232146446 -4.4553606008462 2.9493232146446 -7.1034763382505c0 -2.6355654258527 -1.0793267934444 -5.2334799170503 -2.9493232146446 -7.0909260266988 C436.90019070591 193.15462866275 434.30227621471 192.07530186931 431.66671078886 192.07530186931zM351.3786026993 71.690203403292H160.52726996406c-5.5447276435319 0 -10.040249241343 4.4955215978115 -10.040249241343 10.040249241343s4.4955215978115 10.040249241343 10.040249241343 10.040249241343h190.85133273523c5.5447276435319 0 10.040249241343 -4.4955215978115 10.040249241343 -10.040249241343S356.92458537398 71.690203403292 351.3786026993 71.690203403292 zM351.3786026993 31.591957995676h-20.076733389221c-5.5447276435319 0 -10.040249241343 4.4955215978115 -10.040249241343 10.040249241343s4.4955215978115 10.040249241343 10.040249241343 10.040249241343h20.076733389221c5.5447276435319 0 10.040249241343 -4.4955215978115 10.040249241343 -10.040249241343S356.92458537398 31.591957995676 351.3786026993 31.591957995676zM290.93128214179 31.591957995676H160.52726996406c-5.5447276435319 0 -10.040249241343 4.4955215978115 -10.040249241343 10.040249241343s4.4955215978115 10.040249241343 10.040249241343 10.040249241343h130.40401217772c5.5447276435319 0 10.040249241343 -4.4955215978115 10.040249241343 -10.040249241343S296.47600978532 31.591957995676 290.93128214179 31.591957995676zM240.93962613798 111.78844881091h-80.41235617392c-5.5447276435319 0 -10.040249241343 4.4955215978115 -10.040249241343 10.040249241343s4.4955215978115 10.040249241343 10.040249241343 10.040249241343h80.41235617392c5.5447276435319 0 10.040249241343 -4.4955215978115 10.040249241343 -10.040249241343S246.48435378152 111.78844881091 240.93962613798 111.78844881091zM351.3786026993 111.78844881091h-70.069644424181c-5.5447276435319 0 -10.040249241343 4.4955215978115 -10.040249241343 10.040249241343s4.4955215978115 10.040249241343 10.040249241343 10.040249241343h70.069644424181c5.5447276435319 0 10.040249241343 -4.4955215978115 10.040249241343 -10.040249241343S356.92458537398 111.78844881091 351.3786026993 111.78844881091zM401.58361399948 191.76530917398h-40.160996965374c-5.5447276435319 0 -10.040249241343 4.4955215978115 -10.040249241343 10.040249241343s4.4955215978115 10.040249241343 10.040249241343 10.040249241343h40.160996965374c5.5447276435319 0 10.040249241343 -4.4955215978115 10.040249241343 -10.040249241343S407.12834164301 191.76530917398 401.58361399948 191.76530917398z"/><glyph unicode="&#xE00B;" glyph-name="telephone51" horiz-adv-x="512" d="M497.26038141728 64.178976544078l-74.000976295867 74.032747280023c-9.9379638439581 9.8871302693087 -23.24577007405 15.334795019236 -37.46646258222 15.334795019236 c-14.798924419807 0 -28.771803251562 -5.8267984941877 -39.336714516196 -16.398063955653l-28.805692301328 -28.799338104497c-22.38371737062 12.441517395441 -52.134066934183 29.553369461796 -83.021817730526 60.441120258139 c-30.851743680966 30.862334009018 -47.965713812932 60.525842882555 -60.470773176685 83.030289992967l28.833227154263 28.812046498159c21.436942042775 21.481421420593 21.875381624126 55.944466967278 0.98066437761138 76.820121623299L129.98568650974 431.44096305796 c-9.910428991023 9.9379638439581 -23.218235221114 15.41104538121 -37.474934844661 15.41104538121c-14.468506184586 0 -28.155446158938 -5.5705125553303 -38.65893352087 -15.709692632276c-6.3541968311753 -5.1172465147065 -38.241674595623 -33.266338476813 -50.126140735531 -91.31828072643 c-16.639523435238 -81.255351011459 21.591560832334 -159.43527075663 131.95972365863 -269.84791296074c123.29048111529 -123.25235593431 228.54351549249 -132.83236669011 257.86601580276 -132.83236669011c6.1042650891491 0 9.7875811856203 0.37701567864973 10.770363628842 0.49139122161089 c57.499127125305 6.7396847722666 78.086724858313 32.27508377115 93.118636495263 50.920415339428C516.91814834733 12.72057253961 516.8503702478 44.516973482811 497.26038141728 64.178976544078zM472.70564679601 8.4971497124891 c-14.129615686923 -17.524874860381 -27.473429032392 -34.075439539983 -72.079890787242 -39.30494353204c-0.023298721714309 -0.0021180656103918 -2.4633103048856 -0.27534852935093 -7.0743391387085 -0.27534852935093c-26.234360650312 0 -120.74668431721 8.9085839573077 -235.39969387333 123.52558639805 C56.372316220577 194.26421213751 20.649021635709 264.09048111529 34.850651553386 333.4528937244c10.365813097257 50.634476482025 37.885839573077 72.156141149216 38.955462706325 72.973714474827l0.94889339345551 0.70107971703967l0.83239978488396 0.83451785049435 c4.5940843089397 4.5898481777189 10.603036445621 7.1188185165267 16.92122616142 7.1188185165267c5.752666197824 0 11.073247011128 -2.1561907913788 14.995904521574 -6.0915566954867l74.003094361478 -74.005212427088c8.5146237537749 -8.5061514913333 8.061357713151 -22.820038886361 -0.99760890249452 -31.8980680925 L147.90240350805 270.50610184917l-0.53587059942912 -0.56128738675382c-8.4976792288917 -9.3597319323212 -7.4979522607868 -22.008819757581 -2.817027261821 -30.245976916394c13.506904397468 -24.374699044388 32.00820750424 -57.757531129773 67.608654283705 -93.36856823729 c35.481835105283 -35.481835105283 68.815951681628 -53.968311752782 93.122872626484 -67.449799362926c2.4336573863401 -1.3661523187027 7.4577090141894 -3.6578993091466 13.746245811443 -3.6578993091466c7.4259380300335 0 14.243991229885 3.1432093658214 19.291341579448 8.8725768419311l30.60181193894 30.593339676499 c4.568667521615 4.5707855872254 10.558557067803 7.0891655979812 16.86827452116 7.0891655979812c5.7653745914864 0 11.113490257726 -2.16254498821 15.02767550573 -6.05554958011l73.952260786828 -73.984031770984 C484.16226368262 32.310561370124 480.28408554999 17.897124891408 472.70564679601 8.4971497124891zM310.18435444504 369.01097919166c27.295511521119 -3.141091300211 59.435039093203 -19.674711454929 81.878062300914 -42.119852728251c22.65271170314 -22.65271170314 39.226575104455 -55.118421379225 42.219401811939 -82.710462085798 c0.88323335953336 -8.1397261407355 7.7669465933066 -14.171976999131 15.773234600587 -14.171976999131c0.57187771480578 0 1.1522276920531 0.031770984155876 1.7325776693005 0.093194886857237c8.7221941835933 0.94677532784512 15.025557440119 8.7836180862946 14.078782112274 17.505812269888 c-3.7849832457701 34.878186406321 -23.457576635089 73.865420096802 -51.337674264675 101.747635792c-27.619575559509 27.621693625119 -66.208612915236 47.245571505399 -100.71190170852 51.216944524883c-8.7116038555413 1.0103172961569 -16.592925991809 -5.2506846481612 -17.596889091135 -13.964406569313 C295.2159847764 377.89414636164 301.46639639267 370.01494229099 310.18435444504 369.01097919166zM295.34306871303 302.46559384437c14.762917304431 -1.7008066851446 35.193778182269 -12.65120589087 48.577834774335 -26.035262482936c13.498432135027 -13.500550200637 24.470011996856 -34.126273114632 26.086096057585 -49.048045339842 c0.88323335953336 -8.1418442063459 7.7669465933066 -14.174095064742 15.773234600587 -14.174095064742c0.57187771480578 0 1.1501096264427 0.031770984155876 1.7304596036901 0.093194886857237c8.7221941835933 0.94677532784512 15.02767550573 8.7836180862946 14.080900177884 17.505812269888 c-2.7619575559509 25.476093161792 -19.674711454929 52.555561990651 -35.208604641542 68.089455177264c-15.394100856327 15.396218921938 -42.208811483887 32.228486327721 -67.407438050718 35.132354279568c-8.7243122492037 1.0145534273777 -16.595044057419 -5.2485665825508 -17.599007156745 -13.962288503702 C280.37469904439 311.35087907997 286.62722872626 303.4695569437 295.34306871303 302.46559384437z"/><glyph unicode="&#xE00C;" glyph-name="user146" horiz-adv-x="512" d="M364.72022838001 133.77571567423c40.912395239231 32.224761136276 67.279673812711 82.095521037735 67.279673812711 138.22438213305C431.99990219272 369.20019316938 353.2000953621 448 256 448 S80.000097807283 369.20019316938 80.000097807283 272.00009780728c0 -56.128078637056 26.368061031745 -105.99962099678 67.279673812711 -138.22438213305C73.919614639305 96.384382622091 22.287541186036 22.52736464389 16.575595860307 -64h32.047925568658 c6.1759430761613 81.022770758068 58.847903562019 148.92684626529 131.34422661947 177.45605702165c23.04026603581 -11.071784432748 48.768276207767 -17.457426323608 76.032251951561 -17.457426323608c27.280407367334 0 52.991985915751 6.3848594325955 76.031469493297 17.457426323608 c72.496323057456 -28.529210756356 125.16828354331 -96.433286263578 131.34422661947 -177.45605702165h32.047925568658C489.72810797924 22.52736464389 438.07960290243 96.384382622091 364.72022838001 133.77571567423zM256 127.9988263126 c-79.53610005685 0 -144.00048903641 64.464388979564 -144.00048903641 144.00127149468c0 79.53610005685 64.464388979564 143.99970657815 144.00048903641 143.99970657815s144.00048903641 -64.463606521301 144.00048903641 -143.99970657815 C399.99970657815 192.46321529217 335.53610005685 127.9988263126 256 127.9988263126z"/></font></defs></svg>
